EESchema Schematic File Version 4
LIBS:led-strip-soft-robot-cache
EELAYER 26 0
EELAYER END
$Descr A4 11693 8268
encoding utf-8
Sheet 1 1
Title ""
Date ""
Rev ""
Comp ""
Comment1 ""
Comment2 ""
Comment3 ""
Comment4 ""
$EndDescr
$Comp
L led-strip-soft-robot-rescue:Arduino_Nano_v3.x-modules A1
U 1 1 5A5C0E2B
P 4500 2700
F 0 "A1" H 4250 1700 50  0000 C CNN
F 1 "Arduino_Nano" H 4500 1523 50  0000 C CNN
F 2 "Modules:Arduino_Nano" H 4650 1750 50  0001 L CNN
F 3 "http://www.mouser.com/pdfdocs/Gravitech_Arduino_Nano3_0.pdf" H 4500 1700 50  0001 C CNN
	1    4500 2700
	1    0    0    -1  
$EndComp
Wire Wire Line
	4500 3700 4500 3750
Wire Wire Line
	4500 3750 4600 3750
Wire Wire Line
	4600 3700 4600 3750
Connection ~ 4600 3750
Wire Wire Line
	4600 3750 4650 3750
$Comp
L power:+6V #PWR02
U 1 1 5A5C1A1B
P 4400 1500
F 0 "#PWR02" H 4400 1350 50  0001 C CNN
F 1 "+6V" H 4415 1673 50  0000 C CNN
F 2 "" H 4400 1500 50  0001 C CNN
F 3 "" H 4400 1500 50  0001 C CNN
	1    4400 1500
	1    0    0    -1  
$EndComp
Wire Wire Line
	4400 1500 4400 1700
$Comp
L led-strip-soft-robot-rescue:Conn_01x03-Connector J8
U 1 1 5A5C1F74
P 7250 3850
F 0 "J8" H 7350 3900 50  0000 L CNN
F 1 "A3" H 7350 3800 50  0000 L CNN
F 2 "Connectors_JST:JST_XH_B03B-XH-A_03x2.50mm_Straight" H 7250 3850 50  0001 C CNN
F 3 "~" H 7250 3850 50  0001 C CNN
	1    7250 3850
	0    1    1    0   
$EndComp
$Comp
L led-strip-soft-robot-rescue:Conn_01x03-Connector J7
U 1 1 5A5C206D
P 6850 3900
F 0 "J7" H 6950 3950 50  0000 L CNN
F 1 "A4" H 6950 3850 50  0000 L CNN
F 2 "Connectors_JST:JST_XH_B03B-XH-A_03x2.50mm_Straight" H 6850 3900 50  0001 C CNN
F 3 "~" H 6850 3900 50  0001 C CNN
	1    6850 3900
	0    1    1    0   
$EndComp
$Comp
L led-strip-soft-robot-rescue:Conn_01x03-Connector J6
U 1 1 5A5C208C
P 7450 1850
F 0 "J6" H 7550 1900 50  0000 L CNN
F 1 "PIR" H 7550 1800 50  0000 L CNN
F 2 "Connectors_JST:JST_XH_B03B-XH-A_03x2.50mm_Straight" H 7450 1850 50  0001 C CNN
F 3 "~" H 7450 1850 50  0001 C CNN
	1    7450 1850
	0    1    1    0   
$EndComp
$Comp
L power:+5C #PWR03
U 1 1 5A5C23EC
P 4700 1650
F 0 "#PWR03" H 4700 1500 50  0001 C CNN
F 1 "+5C" H 4715 1823 50  0000 C CNN
F 2 "" H 4700 1650 50  0001 C CNN
F 3 "" H 4700 1650 50  0001 C CNN
	1    4700 1650
	1    0    0    -1  
$EndComp
Wire Wire Line
	4700 1700 4700 1650
$Comp
L power:+5C #PWR04
U 1 1 5A5C24FC
P 5350 3500
F 0 "#PWR04" H 5350 3350 50  0001 C CNN
F 1 "+5C" V 5365 3628 50  0000 L CNN
F 2 "" H 5350 3500 50  0001 C CNN
F 3 "" H 5350 3500 50  0001 C CNN
	1    5350 3500
	0    -1   -1   0   
$EndComp
$Comp
L power:GND #PWR05
U 1 1 5A5C2608
P 5350 3600
F 0 "#PWR05" H 5350 3350 50  0001 C CNN
F 1 "GND" V 5355 3472 50  0000 R CNN
F 2 "" H 5350 3600 50  0001 C CNN
F 3 "" H 5350 3600 50  0001 C CNN
	1    5350 3600
	0    1    1    0   
$EndComp
Wire Wire Line
	6300 3500 6350 3500
Wire Wire Line
	6350 3500 6350 3650
Wire Wire Line
	6350 3500 6750 3500
Connection ~ 6350 3500
Wire Wire Line
	7150 3650 7150 3500
Wire Wire Line
	6750 3650 6750 3500
Connection ~ 6750 3500
Wire Wire Line
	6750 3500 7150 3500
Wire Wire Line
	6300 3600 6550 3600
Wire Wire Line
	7350 3650 7350 3600
Wire Wire Line
	6950 3650 6950 3600
Connection ~ 6950 3600
Wire Wire Line
	6950 3600 7350 3600
Wire Wire Line
	6550 3650 6550 3600
Connection ~ 6550 3600
Wire Wire Line
	6550 3600 6950 3600
Wire Wire Line
	7250 3650 7250 3000
Wire Wire Line
	6200 3000 5000 3000
Wire Wire Line
	6850 3650 6850 3100
Wire Wire Line
	6450 3650 6450 3200
$Comp
L led-strip-soft-robot-rescue:Conn_01x03-Connector J5
U 1 1 5A5C573E
P 3300 3650
F 0 "J5" H 3500 3700 50  0000 C CNN
F 1 "Servo1" H 3600 3600 50  0000 C CNN
F 2 "Pin_Headers:Pin_Header_Straight_1x03_Pitch2.54mm" H 3300 3650 50  0001 C CNN
F 3 "~" H 3300 3650 50  0001 C CNN
	1    3300 3650
	0    1    1    0   
$EndComp
$Comp
L power:GND #PWR06
U 1 1 5A5C809F
P 3450 3300
F 0 "#PWR06" H 3450 3050 50  0001 C CNN
F 1 "GND" V 3455 3172 50  0000 R CNN
F 2 "" H 3450 3300 50  0001 C CNN
F 3 "" H 3450 3300 50  0001 C CNN
	1    3450 3300
	0    -1   -1   0   
$EndComp
Wire Wire Line
	3450 3300 3200 3300
Wire Wire Line
	3200 3300 3200 3450
$Comp
L led-strip-soft-robot-rescue:Conn_01x03-Connector J3
U 1 1 5A5CC082
P 2900 3650
F 0 "J3" H 3100 3700 50  0000 C CNN
F 1 "Servo2" H 3200 3600 50  0000 C CNN
F 2 "Pin_Headers:Pin_Header_Straight_1x03_Pitch2.54mm" H 2900 3650 50  0001 C CNN
F 3 "~" H 2900 3650 50  0001 C CNN
	1    2900 3650
	0    1    1    0   
$EndComp
Wire Wire Line
	3300 3450 3300 3400
Wire Wire Line
	3300 3400 3450 3400
$Comp
L power:+6V #PWR07
U 1 1 5A5D7ED1
P 3450 3400
F 0 "#PWR07" H 3450 3250 50  0001 C CNN
F 1 "+6V" V 3465 3528 50  0000 L CNN
F 2 "" H 3450 3400 50  0001 C CNN
F 3 "" H 3450 3400 50  0001 C CNN
	1    3450 3400
	0    1    1    0   
$EndComp
$Comp
L led-strip-soft-robot-rescue:Barrel_Jack-Connector J1
U 1 1 5A5DCEA5
P 2800 1200
F 0 "J1" H 2878 1525 50  0000 C CNN
F 1 "Barrel_Jack" H 2878 1434 50  0000 C CNN
F 2 "Connector_BarrelJack:BarrelJack_Horizontal" H 2850 1160 50  0001 C CNN
F 3 "~" H 2850 1160 50  0001 C CNN
	1    2800 1200
	1    0    0    -1  
$EndComp
$Comp
L power:GND #PWR08
U 1 1 5A5DCFC5
P 3200 1300
F 0 "#PWR08" H 3200 1050 50  0001 C CNN
F 1 "GND" V 3205 1172 50  0000 R CNN
F 2 "" H 3200 1300 50  0001 C CNN
F 3 "" H 3200 1300 50  0001 C CNN
	1    3200 1300
	0    -1   -1   0   
$EndComp
Wire Wire Line
	3100 1200 3150 1200
Wire Wire Line
	3150 1200 3150 1300
Wire Wire Line
	3150 1300 3200 1300
Wire Wire Line
	3100 1300 3150 1300
Connection ~ 3150 1300
$Comp
L power:+6V #PWR09
U 1 1 5A5DFFEA
P 3250 1100
F 0 "#PWR09" H 3250 950 50  0001 C CNN
F 1 "+6V" V 3265 1228 50  0000 L CNN
F 2 "" H 3250 1100 50  0001 C CNN
F 3 "" H 3250 1100 50  0001 C CNN
	1    3250 1100
	0    1    1    0   
$EndComp
Wire Wire Line
	3100 1100 3250 1100
$Comp
L power:GND #PWR01
U 1 1 5A5E2FAD
P 4650 3750
F 0 "#PWR01" H 4650 3500 50  0001 C CNN
F 1 "GND" V 4655 3622 50  0000 R CNN
F 2 "" H 4650 3750 50  0001 C CNN
F 3 "" H 4650 3750 50  0001 C CNN
	1    4650 3750
	0    -1   -1   0   
$EndComp
$Comp
L led-strip-soft-robot-rescue:Conn_01x03-Connector J13
U 1 1 5A5E5A95
P 2950 2400
F 0 "J13" H 3050 2450 50  0000 L CNN
F 1 "LED" H 3050 2350 50  0000 L CNN
F 2 "Connectors_JST:JST_XH_B03B-XH-A_03x2.50mm_Straight" H 2950 2400 50  0001 C CNN
F 3 "~" H 2950 2400 50  0001 C CNN
	1    2950 2400
	-1   0    0    1   
$EndComp
$Comp
L power:GND #PWR010
U 1 1 5A5E7590
P 3200 2500
F 0 "#PWR010" H 3200 2250 50  0001 C CNN
F 1 "GND" V 3205 2372 50  0000 R CNN
F 2 "" H 3200 2500 50  0001 C CNN
F 3 "" H 3200 2500 50  0001 C CNN
	1    3200 2500
	0    -1   -1   0   
$EndComp
$Comp
L power:+6V #PWR011
U 1 1 5A5E7596
P 3200 2300
F 0 "#PWR011" H 3200 2150 50  0001 C CNN
F 1 "+6V" V 3215 2428 50  0000 L CNN
F 2 "" H 3200 2300 50  0001 C CNN
F 3 "" H 3200 2300 50  0001 C CNN
	1    3200 2300
	0    1    1    0   
$EndComp
Wire Wire Line
	3200 2500 3150 2500
Wire Wire Line
	3150 2300 3200 2300
Wire Wire Line
	4000 2400 3150 2400
Wire Wire Line
	3300 3400 2900 3400
Wire Wire Line
	2900 3400 2900 3450
Connection ~ 3300 3400
Wire Wire Line
	3200 3300 2800 3300
Wire Wire Line
	2800 3300 2800 3450
Connection ~ 3200 3300
$Comp
L power:GND #PWR012
U 1 1 5A621247
P 2250 1950
F 0 "#PWR012" H 2250 1700 50  0001 C CNN
F 1 "GND" H 2255 1777 50  0000 C CNN
F 2 "" H 2250 1950 50  0001 C CNN
F 3 "" H 2250 1950 50  0001 C CNN
	1    2250 1950
	1    0    0    -1  
$EndComp
$Comp
L power:+6V #PWR013
U 1 1 5A621294
P 2250 1550
F 0 "#PWR013" H 2250 1400 50  0001 C CNN
F 1 "+6V" H 2265 1723 50  0000 C CNN
F 2 "" H 2250 1550 50  0001 C CNN
F 3 "" H 2250 1550 50  0001 C CNN
	1    2250 1550
	1    0    0    -1  
$EndComp
Wire Wire Line
	2250 1550 2250 1600
Wire Wire Line
	2250 1900 2250 1950
$Comp
L led-strip-soft-robot-rescue:CP-device C1
U 1 1 5A623DC1
P 2250 1750
F 0 "C1" H 2368 1796 50  0000 L CNN
F 1 "CP" H 2368 1705 50  0000 L CNN
F 2 "Capacitors_THT:CP_Radial_D8.0mm_P2.50mm" H 2288 1600 50  0001 C CNN
F 3 "" H 2250 1750 50  0001 C CNN
	1    2250 1750
	1    0    0    -1  
$EndComp
$Comp
L Mechanical:Mounting_Hole MK1
U 1 1 5A624266
P 1600 3150
F 0 "MK1" H 1700 3196 50  0000 L CNN
F 1 "Mounting_Hole" H 1700 3105 50  0000 L CNN
F 2 "Mounting_Holes:MountingHole_4.3mm_M4" H 1600 3150 50  0001 C CNN
F 3 "" H 1600 3150 50  0001 C CNN
	1    1600 3150
	1    0    0    -1  
$EndComp
$Comp
L Mechanical:Mounting_Hole MK2
U 1 1 5A6242EA
P 1600 3400
F 0 "MK2" H 1700 3446 50  0000 L CNN
F 1 "Mounting_Hole" H 1700 3355 50  0000 L CNN
F 2 "Mounting_Holes:MountingHole_4.3mm_M4" H 1600 3400 50  0001 C CNN
F 3 "" H 1600 3400 50  0001 C CNN
	1    1600 3400
	1    0    0    -1  
$EndComp
Wire Wire Line
	4000 3000 3000 3000
Wire Wire Line
	3000 3000 3000 3450
Wire Wire Line
	4000 3100 3400 3100
Wire Wire Line
	3400 3100 3400 3450
$Comp
L Connector_Generic:Conn_01x04 J13
U 1 1 5A8B6814
P 6000 1850
F 0 "J13" V 5873 2030 50  0000 L CNN
F 1 "Ultrasonic" V 5964 2030 50  0000 L CNN
F 2 "" H 6000 1850 50  0001 C CNN
F 3 "~" H 6000 1850 50  0001 C CNN
	1    6000 1850
	0    1    1    0   
$EndComp
$Comp
L Connector_Generic:Conn_01x04 J12
U 1 1 5A8B6937
P 6900 1850
F 0 "J12" H 7000 1850 50  0000 L CNN
F 1 "I2C" H 7000 1750 50  0000 L CNN
F 2 "" H 6900 1850 50  0001 C CNN
F 3 "~" H 6900 1850 50  0001 C CNN
	1    6900 1850
	0    1    1    0   
$EndComp
$Comp
L Sensor_Optical:LDR03 R?
U 1 1 5A8B8007
P 7750 3850
F 0 "R?" V 7950 3850 50  0000 C CNN
F 1 "LDR03" V 7850 3850 50  0000 C CNN
F 2 "OptoDevice:R_LDR_10x8.5mm_P7.6mm_Vertical" V 7925 3850 50  0001 C CNN
F 3 "http://www.elektronica-componenten.nl/WebRoot/StoreNL/Shops/61422969/54F1/BA0C/C664/31B9/2173/C0A8/2AB9/2AEF/LDR03IMP.pdf" H 7750 3800 50  0001 C CNN
	1    7750 3850
	0    1    1    0   
$EndComp
$Comp
L pspice:R R?
U 1 1 5A8B81D3
P 8250 3850
F 0 "R?" V 8350 3850 50  0000 C CNN
F 1 "R" V 8250 3850 50  0000 C CNN
F 2 "" H 8250 3850 50  0001 C CNN
F 3 "" H 8250 3850 50  0001 C CNN
	1    8250 3850
	0    1    1    0   
$EndComp
Wire Wire Line
	7900 3850 7950 3850
Wire Wire Line
	5000 2900 6900 2900
Wire Wire Line
	7950 2900 7950 3850
Connection ~ 7950 3850
Wire Wire Line
	7950 3850 8000 3850
Wire Wire Line
	7600 3850 7600 3600
Wire Wire Line
	7600 3600 7350 3600
Connection ~ 7350 3600
Wire Wire Line
	7150 3500 8500 3500
Wire Wire Line
	8500 3500 8500 3850
Connection ~ 7150 3500
$Comp
L Connector_Generic:Conn_01x02 J?
U 1 1 5A8BE26C
P 7900 1850
F 0 "J?" V 7773 1930 50  0000 L CNN
F 1 "LDR" V 8050 1750 50  0000 L CNN
F 2 "" H 7900 1850 50  0001 C CNN
F 3 "~" H 7900 1850 50  0001 C CNN
	1    7900 1850
	0    1    1    0   
$EndComp
$Comp
L Connector_Generic:Conn_01x02 J?
U 1 1 5A8BE405
P 8300 1850
F 0 "J?" V 8173 1930 50  0000 L CNN
F 1 "POT" V 8400 1700 50  0000 L CNN
F 2 "" H 8300 1850 50  0001 C CNN
F 3 "~" H 8300 1850 50  0001 C CNN
	1    8300 1850
	0    1    1    0   
$EndComp
$Comp
L led-strip-soft-robot-rescue:Conn_01x03-Connector J?
U 1 1 5A8BE6A9
P 6600 2350
F 0 "J?" H 6700 2400 50  0000 L CNN
F 1 "Buzzer" H 6700 2300 50  0000 L CNN
F 2 "Connectors_JST:JST_XH_B03B-XH-A_03x2.50mm_Straight" H 6600 2350 50  0001 C CNN
F 3 "~" H 6600 2350 50  0001 C CNN
	1    6600 2350
	0    1    1    0   
$EndComp
$Comp
L led-strip-soft-robot-rescue:Conn_01x03-Connector J?
U 1 1 5A8BF3FF
P 8700 1850
F 0 "J?" H 8800 1900 50  0000 L CNN
F 1 "PIR" H 8800 1800 50  0000 L CNN
F 2 "Connectors_JST:JST_XH_B03B-XH-A_03x2.50mm_Straight" H 8700 1850 50  0001 C CNN
F 3 "~" H 8700 1850 50  0001 C CNN
	1    8700 1850
	0    1    1    0   
$EndComp
$EndSCHEMATC
