EESchema Schematic File Version 4
EELAYER 26 0
EELAYER END
$Descr A4 11693 8268
encoding utf-8
Sheet 1 1
Title ""
Date ""
Rev ""
Comp ""
Comment1 ""
Comment2 ""
Comment3 ""
Comment4 ""
$EndDescr
$Comp
L modules:Arduino_Nano_v3.x A1
U 1 1 5A5C0E2B
P 4500 2700
F 0 "A1" H 4250 1700 50  0000 C CNN
F 1 "Arduino_Nano" H 4500 1523 50  0000 C CNN
F 2 "Modules:Arduino_Nano" H 4650 1750 50  0001 L CNN
F 3 "http://www.mouser.com/pdfdocs/Gravitech_Arduino_Nano3_0.pdf" H 4500 1700 50  0001 C CNN
	1    4500 2700
	1    0    0    -1  
$EndComp
Wire Wire Line
	4500 3700 4500 3750
Wire Wire Line
	4500 3750 4600 3750
Wire Wire Line
	4600 3700 4600 3750
Connection ~ 4600 3750
Wire Wire Line
	4600 3750 4650 3750
$Comp
L power:+6V #PWR02
U 1 1 5A5C1A1B
P 4400 1500
F 0 "#PWR02" H 4400 1350 50  0001 C CNN
F 1 "+6V" H 4415 1673 50  0000 C CNN
F 2 "" H 4400 1500 50  0001 C CNN
F 3 "" H 4400 1500 50  0001 C CNN
	1    4400 1500
	1    0    0    -1  
$EndComp
Wire Wire Line
	4400 1500 4400 1700
$Comp
L Connector:Conn_01x03 J8
U 1 1 5A5C1F74
P 6200 3850
F 0 "J8" H 6300 3900 50  0000 L CNN
F 1 "A3" H 6300 3800 50  0000 L CNN
F 2 "Connectors_JST:JST_XH_B03B-XH-A_03x2.50mm_Straight" H 6200 3850 50  0001 C CNN
F 3 "~" H 6200 3850 50  0001 C CNN
	1    6200 3850
	0    1    1    0   
$EndComp
$Comp
L Connector:Conn_01x03 J7
U 1 1 5A5C206D
P 5800 3850
F 0 "J7" H 5900 3900 50  0000 L CNN
F 1 "A4" H 5900 3800 50  0000 L CNN
F 2 "Connectors_JST:JST_XH_B03B-XH-A_03x2.50mm_Straight" H 5800 3850 50  0001 C CNN
F 3 "~" H 5800 3850 50  0001 C CNN
	1    5800 3850
	0    1    1    0   
$EndComp
$Comp
L Connector:Conn_01x03 J6
U 1 1 5A5C208C
P 5400 3850
F 0 "J6" H 5500 3900 50  0000 L CNN
F 1 "A5" H 5500 3800 50  0000 L CNN
F 2 "Connectors_JST:JST_XH_B03B-XH-A_03x2.50mm_Straight" H 5400 3850 50  0001 C CNN
F 3 "~" H 5400 3850 50  0001 C CNN
	1    5400 3850
	0    1    1    0   
$EndComp
$Comp
L power:+5C #PWR03
U 1 1 5A5C23EC
P 4700 1650
F 0 "#PWR03" H 4700 1500 50  0001 C CNN
F 1 "+5C" H 4715 1823 50  0000 C CNN
F 2 "" H 4700 1650 50  0001 C CNN
F 3 "" H 4700 1650 50  0001 C CNN
	1    4700 1650
	1    0    0    -1  
$EndComp
Wire Wire Line
	4700 1700 4700 1650
$Comp
L power:+5C #PWR04
U 1 1 5A5C24FC
P 5250 3500
F 0 "#PWR04" H 5250 3350 50  0001 C CNN
F 1 "+5C" V 5265 3628 50  0000 L CNN
F 2 "" H 5250 3500 50  0001 C CNN
F 3 "" H 5250 3500 50  0001 C CNN
	1    5250 3500
	0    -1   -1   0   
$EndComp
$Comp
L power:GND #PWR05
U 1 1 5A5C2608
P 5250 3600
F 0 "#PWR05" H 5250 3350 50  0001 C CNN
F 1 "GND" V 5255 3472 50  0000 R CNN
F 2 "" H 5250 3600 50  0001 C CNN
F 3 "" H 5250 3600 50  0001 C CNN
	1    5250 3600
	0    1    1    0   
$EndComp
$Comp
L Connector:Conn_01x03 J11
U 1 1 5A5C270C
P 7400 3850
F 0 "J11" H 7500 3850 50  0000 L CNN
F 1 "A0" H 7500 3750 50  0000 L CNN
F 2 "Connectors_JST:JST_XH_B03B-XH-A_03x2.50mm_Straight" H 7400 3850 50  0001 C CNN
F 3 "~" H 7400 3850 50  0001 C CNN
	1    7400 3850
	0    1    1    0   
$EndComp
$Comp
L Connector:Conn_01x03 J10
U 1 1 5A5C2713
P 7000 3850
F 0 "J10" H 7100 3900 50  0000 L CNN
F 1 "A1" H 7100 3800 50  0000 L CNN
F 2 "Connectors_JST:JST_XH_B03B-XH-A_03x2.50mm_Straight" H 7000 3850 50  0001 C CNN
F 3 "~" H 7000 3850 50  0001 C CNN
	1    7000 3850
	0    1    1    0   
$EndComp
$Comp
L Connector:Conn_01x03 J9
U 1 1 5A5C271A
P 6600 3850
F 0 "J9" H 6700 3900 50  0000 L CNN
F 1 "A2" H 6700 3800 50  0000 L CNN
F 2 "Connectors_JST:JST_XH_B03B-XH-A_03x2.50mm_Straight" H 6600 3850 50  0001 C CNN
F 3 "~" H 6600 3850 50  0001 C CNN
	1    6600 3850
	0    1    1    0   
$EndComp
Wire Wire Line
	5250 3500 5300 3500
Wire Wire Line
	5300 3500 5300 3650
Wire Wire Line
	5300 3500 5700 3500
Wire Wire Line
	7300 3500 7300 3650
Connection ~ 5300 3500
Wire Wire Line
	6900 3650 6900 3500
Connection ~ 6900 3500
Wire Wire Line
	6900 3500 7300 3500
Wire Wire Line
	6500 3650 6500 3500
Connection ~ 6500 3500
Wire Wire Line
	6500 3500 6900 3500
Wire Wire Line
	6100 3650 6100 3500
Connection ~ 6100 3500
Wire Wire Line
	6100 3500 6500 3500
Wire Wire Line
	5700 3650 5700 3500
Connection ~ 5700 3500
Wire Wire Line
	5700 3500 6100 3500
Wire Wire Line
	5250 3600 5500 3600
Wire Wire Line
	7500 3600 7500 3650
Wire Wire Line
	7100 3650 7100 3600
Connection ~ 7100 3600
Wire Wire Line
	7100 3600 7500 3600
Wire Wire Line
	6700 3650 6700 3600
Connection ~ 6700 3600
Wire Wire Line
	6700 3600 7100 3600
Wire Wire Line
	6300 3650 6300 3600
Connection ~ 6300 3600
Wire Wire Line
	6300 3600 6700 3600
Wire Wire Line
	5900 3650 5900 3600
Connection ~ 5900 3600
Wire Wire Line
	5900 3600 6300 3600
Wire Wire Line
	5500 3650 5500 3600
Connection ~ 5500 3600
Wire Wire Line
	5500 3600 5900 3600
Wire Wire Line
	7400 3650 7400 2700
Wire Wire Line
	7400 2700 5000 2700
Wire Wire Line
	7000 3650 7000 2800
Wire Wire Line
	7000 2800 5000 2800
Wire Wire Line
	6600 3650 6600 2900
Wire Wire Line
	6600 2900 5000 2900
Wire Wire Line
	6200 3650 6200 3000
Wire Wire Line
	6200 3000 5000 3000
Wire Wire Line
	5800 3650 5800 3100
Wire Wire Line
	5800 3100 5000 3100
Wire Wire Line
	5400 3650 5400 3200
Wire Wire Line
	5400 3200 5000 3200
$Comp
L Connector:Conn_01x03 J5
U 1 1 5A5C573E
P 3300 3650
F 0 "J5" H 3500 3700 50  0000 C CNN
F 1 "Servo1" H 3600 3600 50  0000 C CNN
F 2 "Pin_Headers:Pin_Header_Straight_1x03_Pitch2.54mm" H 3300 3650 50  0001 C CNN
F 3 "~" H 3300 3650 50  0001 C CNN
	1    3300 3650
	0    1    1    0   
$EndComp
$Comp
L power:GND #PWR06
U 1 1 5A5C809F
P 3450 3300
F 0 "#PWR06" H 3450 3050 50  0001 C CNN
F 1 "GND" V 3455 3172 50  0000 R CNN
F 2 "" H 3450 3300 50  0001 C CNN
F 3 "" H 3450 3300 50  0001 C CNN
	1    3450 3300
	0    -1   -1   0   
$EndComp
Wire Wire Line
	3450 3300 3200 3300
Wire Wire Line
	3200 3300 3200 3450
$Comp
L Connector:Conn_01x03 J3
U 1 1 5A5CC082
P 2900 3650
F 0 "J3" H 3100 3700 50  0000 C CNN
F 1 "Servo2" H 3200 3600 50  0000 C CNN
F 2 "Pin_Headers:Pin_Header_Straight_1x03_Pitch2.54mm" H 2900 3650 50  0001 C CNN
F 3 "~" H 2900 3650 50  0001 C CNN
	1    2900 3650
	0    1    1    0   
$EndComp
Wire Wire Line
	3300 3450 3300 3400
Wire Wire Line
	3300 3400 3450 3400
$Comp
L power:+6V #PWR07
U 1 1 5A5D7ED1
P 3450 3400
F 0 "#PWR07" H 3450 3250 50  0001 C CNN
F 1 "+6V" V 3465 3528 50  0000 L CNN
F 2 "" H 3450 3400 50  0001 C CNN
F 3 "" H 3450 3400 50  0001 C CNN
	1    3450 3400
	0    1    1    0   
$EndComp
$Comp
L Connector:Barrel_Jack J1
U 1 1 5A5DCEA5
P 2800 1200
F 0 "J1" H 2878 1525 50  0000 C CNN
F 1 "Barrel_Jack" H 2878 1434 50  0000 C CNN
F 2 "Connectors:Barrel_Jack_CUI_PJ-102AH" H 2850 1160 50  0001 C CNN
F 3 "~" H 2850 1160 50  0001 C CNN
	1    2800 1200
	1    0    0    -1  
$EndComp
$Comp
L power:GND #PWR08
U 1 1 5A5DCFC5
P 3200 1300
F 0 "#PWR08" H 3200 1050 50  0001 C CNN
F 1 "GND" V 3205 1172 50  0000 R CNN
F 2 "" H 3200 1300 50  0001 C CNN
F 3 "" H 3200 1300 50  0001 C CNN
	1    3200 1300
	0    -1   -1   0   
$EndComp
Wire Wire Line
	3100 1200 3150 1200
Wire Wire Line
	3150 1200 3150 1300
Wire Wire Line
	3150 1300 3200 1300
Wire Wire Line
	3100 1300 3150 1300
Connection ~ 3150 1300
$Comp
L power:+6V #PWR09
U 1 1 5A5DFFEA
P 3250 1100
F 0 "#PWR09" H 3250 950 50  0001 C CNN
F 1 "+6V" V 3265 1228 50  0000 L CNN
F 2 "" H 3250 1100 50  0001 C CNN
F 3 "" H 3250 1100 50  0001 C CNN
	1    3250 1100
	0    1    1    0   
$EndComp
Wire Wire Line
	3100 1100 3250 1100
$Comp
L power:GND #PWR01
U 1 1 5A5E2FAD
P 4650 3750
F 0 "#PWR01" H 4650 3500 50  0001 C CNN
F 1 "GND" V 4655 3622 50  0000 R CNN
F 2 "" H 4650 3750 50  0001 C CNN
F 3 "" H 4650 3750 50  0001 C CNN
	1    4650 3750
	0    -1   -1   0   
$EndComp
$Comp
L Connector:Conn_01x03 J13
U 1 1 5A5E5A95
P 2950 2400
F 0 "J13" H 3050 2450 50  0000 L CNN
F 1 "LED" H 3050 2350 50  0000 L CNN
F 2 "Connectors_JST:JST_XH_B03B-XH-A_03x2.50mm_Straight" H 2950 2400 50  0001 C CNN
F 3 "~" H 2950 2400 50  0001 C CNN
	1    2950 2400
	-1   0    0    1   
$EndComp
$Comp
L power:GND #PWR010
U 1 1 5A5E7590
P 3200 2500
F 0 "#PWR010" H 3200 2250 50  0001 C CNN
F 1 "GND" V 3205 2372 50  0000 R CNN
F 2 "" H 3200 2500 50  0001 C CNN
F 3 "" H 3200 2500 50  0001 C CNN
	1    3200 2500
	0    -1   -1   0   
$EndComp
$Comp
L power:+6V #PWR011
U 1 1 5A5E7596
P 3200 2300
F 0 "#PWR011" H 3200 2150 50  0001 C CNN
F 1 "+6V" V 3215 2428 50  0000 L CNN
F 2 "" H 3200 2300 50  0001 C CNN
F 3 "" H 3200 2300 50  0001 C CNN
	1    3200 2300
	0    1    1    0   
$EndComp
Wire Wire Line
	3200 2500 3150 2500
Wire Wire Line
	3150 2300 3200 2300
Wire Wire Line
	4000 2400 3150 2400
Wire Wire Line
	3300 3400 2900 3400
Wire Wire Line
	2900 3400 2900 3450
Connection ~ 3300 3400
Wire Wire Line
	3200 3300 2800 3300
Wire Wire Line
	2800 3300 2800 3450
Connection ~ 3200 3300
$Comp
L power:GND #PWR012
U 1 1 5A621247
P 2250 1950
F 0 "#PWR012" H 2250 1700 50  0001 C CNN
F 1 "GND" H 2255 1777 50  0000 C CNN
F 2 "" H 2250 1950 50  0001 C CNN
F 3 "" H 2250 1950 50  0001 C CNN
	1    2250 1950
	1    0    0    -1  
$EndComp
$Comp
L power:+6V #PWR013
U 1 1 5A621294
P 2250 1550
F 0 "#PWR013" H 2250 1400 50  0001 C CNN
F 1 "+6V" H 2265 1723 50  0000 C CNN
F 2 "" H 2250 1550 50  0001 C CNN
F 3 "" H 2250 1550 50  0001 C CNN
	1    2250 1550
	1    0    0    -1  
$EndComp
Wire Wire Line
	2250 1550 2250 1600
Wire Wire Line
	2250 1900 2250 1950
$Comp
L device:CP C1
U 1 1 5A623DC1
P 2250 1750
F 0 "C1" H 2368 1796 50  0000 L CNN
F 1 "CP" H 2368 1705 50  0000 L CNN
F 2 "Capacitors_THT:CP_Radial_D8.0mm_P2.50mm" H 2288 1600 50  0001 C CNN
F 3 "" H 2250 1750 50  0001 C CNN
	1    2250 1750
	1    0    0    -1  
$EndComp
$Comp
L Mechanical:Mounting_Hole MK1
U 1 1 5A624266
P 1600 3150
F 0 "MK1" H 1700 3196 50  0000 L CNN
F 1 "Mounting_Hole" H 1700 3105 50  0000 L CNN
F 2 "Mounting_Holes:MountingHole_4.3mm_M4" H 1600 3150 50  0001 C CNN
F 3 "" H 1600 3150 50  0001 C CNN
	1    1600 3150
	1    0    0    -1  
$EndComp
$Comp
L Mechanical:Mounting_Hole MK2
U 1 1 5A6242EA
P 1600 3400
F 0 "MK2" H 1700 3446 50  0000 L CNN
F 1 "Mounting_Hole" H 1700 3355 50  0000 L CNN
F 2 "Mounting_Holes:MountingHole_4.3mm_M4" H 1600 3400 50  0001 C CNN
F 3 "" H 1600 3400 50  0001 C CNN
	1    1600 3400
	1    0    0    -1  
$EndComp
Wire Wire Line
	4000 3000 3000 3000
Wire Wire Line
	3000 3000 3000 3450
Wire Wire Line
	4000 3100 3400 3100
Wire Wire Line
	3400 3100 3400 3450
$EndSCHEMATC
