G04 #@! TF.GenerationSoftware,KiCad,Pcbnew,no-vcs-found-bf44d39~61~ubuntu16.04.1*
G04 #@! TF.CreationDate,2018-01-16T12:13:02+13:00*
G04 #@! TF.ProjectId,led-strip-soft-robot,6C65642D73747269702D736F66742D72,rev?*
G04 #@! TF.SameCoordinates,Original*
G04 #@! TF.FileFunction,Soldermask,Top*
G04 #@! TF.FilePolarity,Negative*
%FSLAX46Y46*%
G04 Gerber Fmt 4.6, Leading zero omitted, Abs format (unit mm)*
G04 Created by KiCad (PCBNEW no-vcs-found-bf44d39~61~ubuntu16.04.1) date Tue Jan 16 12:13:02 2018*
%MOMM*%
%LPD*%
G01*
G04 APERTURE LIST*
%ADD10C,3.000000*%
%ADD11R,3.000000X3.000000*%
%ADD12O,2.000000X2.000000*%
%ADD13R,2.000000X2.000000*%
%ADD14O,2.100000X2.100000*%
%ADD15R,2.100000X2.100000*%
%ADD16C,2.150000*%
%ADD17R,2.150000X2.150000*%
%ADD18C,2.000000*%
%ADD19C,4.700000*%
G04 APERTURE END LIST*
D10*
X108840000Y-86820000D03*
X104140000Y-89820000D03*
D11*
X104140000Y-83820000D03*
D12*
X128270000Y-90170000D03*
X113030000Y-90170000D03*
X128270000Y-54610000D03*
X113030000Y-87630000D03*
X128270000Y-57150000D03*
X113030000Y-85090000D03*
X128270000Y-59690000D03*
X113030000Y-82550000D03*
X128270000Y-62230000D03*
X113030000Y-80010000D03*
X128270000Y-64770000D03*
X113030000Y-77470000D03*
X128270000Y-67310000D03*
X113030000Y-74930000D03*
X128270000Y-69850000D03*
X113030000Y-72390000D03*
X128270000Y-72390000D03*
X113030000Y-69850000D03*
X128270000Y-74930000D03*
X113030000Y-67310000D03*
X128270000Y-77470000D03*
X113030000Y-64770000D03*
X128270000Y-80010000D03*
X113030000Y-62230000D03*
X128270000Y-82550000D03*
X113030000Y-59690000D03*
X128270000Y-85090000D03*
X113030000Y-57150000D03*
X128270000Y-87630000D03*
D13*
X113030000Y-54610000D03*
D14*
X101600000Y-71120000D03*
X104140000Y-71120000D03*
D15*
X106680000Y-71120000D03*
D14*
X101600000Y-76200000D03*
X104140000Y-76200000D03*
D15*
X106680000Y-76200000D03*
D16*
X139620000Y-53340000D03*
X137120000Y-53340000D03*
D17*
X134620000Y-53340000D03*
X134620000Y-60960000D03*
D16*
X137120000Y-60960000D03*
X139620000Y-60960000D03*
X139620000Y-68580000D03*
X137120000Y-68580000D03*
D17*
X134620000Y-68580000D03*
X134620000Y-76200000D03*
D16*
X137120000Y-76200000D03*
X139620000Y-76200000D03*
X139620000Y-83820000D03*
X137120000Y-83820000D03*
D17*
X134620000Y-83820000D03*
X134620000Y-91440000D03*
D16*
X137120000Y-91440000D03*
X139620000Y-91440000D03*
X106600000Y-63500000D03*
X104100000Y-63500000D03*
D17*
X101600000Y-63500000D03*
D18*
X105370000Y-54610000D03*
D13*
X102870000Y-54610000D03*
D19*
X120650000Y-60960000D03*
X120650000Y-86360000D03*
M02*
