(module LOGO (layer F.Cu)
  (at 0 0)
 (fp_text reference "G***" (at 0 0) (layer F.SilkS) hide
  (effects (font (thickness 0.3)))
  )
  (fp_text value "LOGO" (at 0.75 0) (layer F.SilkS) hide
  (effects (font (thickness 0.3)))
  )
  (fp_poly (pts (xy 14.517746 -1.592019) (xy 14.867896 -1.537152) (xy 15.209351 -1.436684) (xy 15.573846 -1.283232) (xy 15.619311 -1.261547) (xy 15.820458 -1.160770) (xy 15.978385 -1.069181) (xy 16.117676 -0.968983)
     (xy 16.262912 -0.842380) (xy 16.438678 -0.671576) (xy 16.450299 -0.659966) (xy 16.624205 -0.481682) (xy 16.752881 -0.335349) (xy 16.854121 -0.196384) (xy 16.945724 -0.040205) (xy 17.045484 0.157770)
     (xy 17.051880 0.171021) (xy 17.211991 0.540270) (xy 17.318258 0.882777) (xy 17.378063 1.230278) (xy 17.398788 1.614510) (xy 17.399000 1.663168) (xy 17.358634 2.183294) (xy 17.240534 2.679611)
     (xy 17.049194 3.144848) (xy 16.789108 3.571733) (xy 16.464771 3.952995) (xy 16.080676 4.281363) (xy 15.641318 4.549564) (xy 15.603331 4.568490) (xy 15.410665 4.656263) (xy 15.209195 4.737354)
     (xy 15.036649 4.796781) (xy 15.007166 4.805230) (xy 14.780338 4.849715) (xy 14.499502 4.879279) (xy 14.193159 4.893225) (xy 13.889808 4.890856) (xy 13.617947 4.871478) (xy 13.443044 4.843431)
     (xy 12.944907 4.690855) (xy 12.488345 4.468857) (xy 12.078522 4.184242) (xy 11.720601 3.843812) (xy 11.419745 3.454371) (xy 11.181119 3.022721) (xy 11.009887 2.555667) (xy 10.911210 2.060011)
     (xy 10.893837 1.631008) (xy 13.050743 1.631008) (xy 13.080750 1.890208) (xy 13.174561 2.137236) (xy 13.330758 2.360400) (xy 13.547924 2.548008) (xy 13.824640 2.688366) (xy 13.838016 2.693222)
     (xy 14.043829 2.742434) (xy 14.254422 2.736870) (xy 14.459733 2.689382) (xy 14.719788 2.571189) (xy 14.934311 2.393435) (xy 15.096528 2.170252) (xy 15.199668 1.915769) (xy 15.236955 1.644116)
     (xy 15.201618 1.369422) (xy 15.155607 1.237687) (xy 15.005804 0.985023) (xy 14.804777 0.786214) (xy 14.566290 0.645951) (xy 14.304108 0.568928) (xy 14.031996 0.559837) (xy 13.763716 0.623371)
     (xy 13.597105 0.706333) (xy 13.357721 0.897298) (xy 13.187810 1.122860) (xy 13.085957 1.371328) (xy 13.050743 1.631008) (xy 10.893837 1.631008) (xy 10.890255 1.542556) (xy 10.892970 1.483607)
     (xy 10.924724 1.124950) (xy 10.982393 0.815403) (xy 11.074463 0.521221) (xy 11.209418 0.208662) (xy 11.218141 0.190500) (xy 11.474930 -0.247291) (xy 11.794055 -0.632859) (xy 12.167683 -0.961358)
     (xy 12.587982 -1.227946) (xy 13.047119 -1.427777) (xy 13.537261 -1.556007) (xy 14.050576 -1.607791) (xy 14.127164 -1.608667) (xy 14.517746 -1.592019) )(layer F.SilkS) (width  0.010000)
  )
  (fp_poly (pts (xy -6.561667 -0.873742) (xy -6.561201 -0.421719) (xy -6.559858 0.009842) (xy -6.557725 0.412625) (xy -6.554888 0.778313) (xy -6.551433 1.098589) (xy -6.547444 1.365137) (xy -6.543008 1.569638)
     (xy -6.538212 1.703778) (xy -6.534583 1.752117) (xy -6.495996 1.902711) (xy -6.426594 2.073691) (xy -6.375833 2.169255) (xy -6.200870 2.390942) (xy -5.991770 2.544852) (xy -5.760405 2.634286)
     (xy -5.518643 2.662542) (xy -5.278356 2.632922) (xy -5.051412 2.548724) (xy -4.849683 2.413249) (xy -4.685038 2.229797) (xy -4.569346 2.001668) (xy -4.514479 1.732161) (xy -4.511632 1.651000)
     (xy -4.542360 1.372065) (xy -4.639785 1.136917) (xy -4.811770 0.928456) (xy -4.866553 0.879179) (xy -5.015175 0.770714) (xy -5.175212 0.697975) (xy -5.367332 0.655260) (xy -5.612204 0.636865)
     (xy -5.751662 0.635000) (xy -6.138334 0.635000) (xy -6.138334 -1.578898) (xy -5.556250 -1.553845) (xy -5.160851 -1.525947) (xy -4.824239 -1.475598) (xy -4.522170 -1.396923) (xy -4.230405 -1.284047)
     (xy -4.018712 -1.181222) (xy -3.585681 -0.909921) (xy -3.209734 -0.579432) (xy -2.894951 -0.196592) (xy -2.645411 0.231765) (xy -2.465194 0.698804) (xy -2.358379 1.197690) (xy -2.328334 1.651000)
     (xy -2.354584 2.108527) (xy -2.438115 2.528426) (xy -2.586103 2.941316) (xy -2.675478 3.132667) (xy -2.863685 3.443036) (xy -3.113283 3.754434) (xy -3.403821 4.046206) (xy -3.714848 4.297700)
     (xy -4.009529 4.479909) (xy -4.425714 4.656503) (xy -4.875130 4.779324) (xy -5.334001 4.844244) (xy -5.778547 4.847136) (xy -5.990167 4.823698) (xy -6.497956 4.703172) (xy -6.970778 4.508091)
     (xy -7.402082 4.243653) (xy -7.785315 3.915060) (xy -8.113927 3.527510) (xy -8.381366 3.086206) (xy -8.494623 2.835873) (xy -8.538548 2.724030) (xy -8.576392 2.617110) (xy -8.608607 2.508084)
     (xy -8.635645 2.389923) (xy -8.657957 2.255598) (xy -8.675995 2.098080) (xy -8.690211 1.910341) (xy -8.701057 1.685351) (xy -8.708985 1.416082) (xy -8.714446 1.095504) (xy -8.717892 0.716590)
     (xy -8.719775 0.272310) (xy -8.720546 -0.244365) (xy -8.720667 -0.681057) (xy -8.720667 -3.302000) (xy -6.561667 -3.302000) (xy -6.561667 -0.873742) )(layer F.SilkS) (width  0.010000)
  )
  (fp_poly (pts (xy 1.354666 0.412849) (xy 1.123715 0.432001) (xy 0.852286 0.495484) (xy 0.609425 0.632982) (xy 0.410561 0.834868) (xy 0.360952 0.907901) (xy 0.232833 1.115063) (xy 0.208999 4.656667)
     (xy -1.995151 4.656667) (xy -1.979306 2.762250) (xy -1.975365 2.310160) (xy -1.971506 1.934156) (xy -1.967301 1.625660) (xy -1.962322 1.376095) (xy -1.956144 1.176880) (xy -1.948339 1.019437)
     (xy -1.938480 0.895189) (xy -1.926141 0.795556) (xy -1.910893 0.711959) (xy -1.892310 0.635822) (xy -1.869965 0.558564) (xy -1.869542 0.557164) (xy -1.679248 0.065802) (xy -1.422285 -0.379585)
     (xy -1.104727 -0.773444) (xy -0.732649 -1.110224) (xy -0.312128 -1.384375) (xy 0.150762 -1.590346) (xy 0.619236 -1.716861) (xy 0.809434 -1.747760) (xy 0.999528 -1.769743) (xy 1.146723 -1.778000)
     (xy 1.354666 -1.778000) (xy 1.354666 0.412849) )(layer F.SilkS) (width  0.010000)
  )
  (fp_poly (pts (xy 3.979333 4.656667) (xy 1.820333 4.656667) (xy 1.820333 -1.778000) (xy 3.979333 -1.778000) (xy 3.979333 4.656667) )(layer F.SilkS) (width  0.010000)
  )
  (fp_poly (pts (xy 6.773333 0.475541) (xy 6.868583 0.448418) (xy 6.987821 0.417301) (xy 7.073996 0.397106) (xy 7.137309 0.357950) (xy 7.256346 0.256417) (xy 7.430368 0.093222) (xy 7.658635 -0.130921)
     (xy 7.940410 -0.415298) (xy 8.274952 -0.759194) (xy 8.343104 -0.829838) (xy 8.598541 -1.093871) (xy 8.836037 -1.337320) (xy 9.049147 -1.553731) (xy 9.231423 -1.736647) (xy 9.376417 -1.879611)
     (xy 9.477683 -1.976166) (xy 9.528772 -2.019858) (xy 9.533293 -2.021714) (xy 9.576310 -1.988679) (xy 9.667858 -1.906951) (xy 9.797510 -1.786642) (xy 9.954835 -1.637861) (xy 10.129406 -1.470721)
     (xy 10.310794 -1.295330) (xy 10.488568 -1.121801) (xy 10.652301 -0.960243) (xy 10.791563 -0.820767) (xy 10.895926 -0.713483) (xy 10.954960 -0.648503) (xy 10.964333 -0.634356) (xy 10.935988 -0.595019)
     (xy 10.856395 -0.504163) (xy 10.733717 -0.370593) (xy 10.576114 -0.203112) (xy 10.391751 -0.010525) (xy 10.259128 0.126314) (xy 9.553922 0.850469) (xy 9.655878 0.918357) (xy 9.792788 1.027407)
     (xy 9.958901 1.186333) (xy 10.135911 1.374932) (xy 10.305509 1.572998) (xy 10.449389 1.760328) (xy 10.530713 1.883833) (xy 10.634426 2.078937) (xy 10.738872 2.306456) (xy 10.821564 2.517384)
     (xy 10.822064 2.518833) (xy 10.861205 2.636869) (xy 10.890829 2.742896) (xy 10.912559 2.851965) (xy 10.928020 2.979131) (xy 10.938838 3.139446) (xy 10.946637 3.347963) (xy 10.953041 3.619735)
     (xy 10.955720 3.757083) (xy 10.972754 4.656667) (xy 8.805333 4.656667) (xy 8.805333 4.049561) (xy 8.799336 3.709087) (xy 8.781462 3.447384) (xy 8.751885 3.266797) (xy 8.745401 3.243319)
     (xy 8.629141 2.986366) (xy 8.458590 2.780553) (xy 8.247137 2.629612) (xy 8.008170 2.537275) (xy 7.755075 2.507275) (xy 7.501241 2.543342) (xy 7.260057 2.649210) (xy 7.090102 2.781888)
     (xy 6.981751 2.895579) (xy 6.901181 3.006687) (xy 6.844368 3.130324) (xy 6.807293 3.281602) (xy 6.785932 3.475635) (xy 6.776266 3.727534) (xy 6.774263 3.968750) (xy 6.773333 4.656667)
     (xy 4.572000 4.656667) (xy 4.572000 -3.302000) (xy 6.773333 -3.302000) (xy 6.773333 0.475541) )(layer F.SilkS) (width  0.010000)
  )
  (fp_poly (pts (xy -14.266334 -1.439333) (xy -14.660817 -1.439334) (xy -14.984623 -1.425099) (xy -15.242925 -1.379538) (xy -15.450454 -1.298362) (xy -15.621938 -1.177285) (xy -15.649431 -1.151585) (xy -15.714775 -1.089290)
     (xy -15.770919 -1.034226) (xy -15.818586 -0.979793) (xy -15.858500 -0.919388) (xy -15.891386 -0.846411) (xy -15.917965 -0.754259) (xy -15.938964 -0.636330) (xy -15.955104 -0.486023) (xy -15.967111 -0.296736)
     (xy -15.975707 -0.061868) (xy -15.981617 0.225185) (xy -15.985563 0.571022) (xy -15.988271 0.982247) (xy -15.990463 1.465461) (xy -15.992647 1.979083) (xy -16.004459 4.614333) (xy -18.161000 4.614333)
     (xy -18.161000 1.947333) (xy -19.558000 1.947333) (xy -19.558000 -0.254000) (xy -18.161000 -0.254000) (xy -18.161000 -0.531393) (xy -18.127291 -0.931120) (xy -18.024271 -1.345932) (xy -17.849101 -1.786757)
     (xy -17.817697 -1.853166) (xy -17.707346 -2.070962) (xy -17.604180 -2.241977) (xy -17.487023 -2.396068) (xy -17.334695 -2.563093) (xy -17.260137 -2.639240) (xy -16.950603 -2.923064) (xy -16.638845 -3.145694)
     (xy -16.296152 -3.326353) (xy -16.126889 -3.398009) (xy -15.889422 -3.481396) (xy -15.650266 -3.539745) (xy -15.387484 -3.576393) (xy -15.079136 -3.594672) (xy -14.808892 -3.598333) (xy -14.266334 -3.598333)
     (xy -14.266334 -1.439333) )(layer F.SilkS) (width  0.010000)
  )
  (fp_poly (pts (xy -11.857351 -1.746381) (xy -11.575768 -1.717517) (xy -11.317860 -1.660222) (xy -11.054236 -1.567703) (xy -10.755502 -1.433166) (xy -10.710334 -1.411146) (xy -10.517927 -1.311424) (xy -10.360294 -1.214167)
     (xy -10.212863 -1.101198) (xy -10.051064 -0.954339) (xy -9.923560 -0.829107) (xy -9.744284 -0.644349) (xy -9.610976 -0.490335) (xy -9.505486 -0.342519) (xy -9.409661 -0.176356) (xy -9.341726 -0.042333)
     (xy -9.264744 0.115264) (xy -9.200307 0.253062) (xy -9.147236 0.380265) (xy -9.104349 0.506079) (xy -9.070467 0.639709) (xy -9.044410 0.790360) (xy -9.024997 0.967238) (xy -9.011049 1.179548)
     (xy -9.001386 1.436496) (xy -8.994826 1.747287) (xy -8.990192 2.121126) (xy -8.986301 2.567220) (xy -8.984905 2.741083) (xy -8.969841 4.614333) (xy -11.127693 4.614333) (xy -11.141264 2.910417)
     (xy -11.144728 2.486025) (xy -11.148054 2.137725) (xy -11.151755 1.856946) (xy -11.156344 1.635115) (xy -11.162337 1.463660) (xy -11.170246 1.334010) (xy -11.180587 1.237592) (xy -11.193872 1.165835)
     (xy -11.210617 1.110166) (xy -11.231334 1.062014) (xy -11.254861 1.016000) (xy -11.430800 0.754727) (xy -11.644620 0.569135) (xy -11.896589 0.459053) (xy -12.180010 0.424263) (xy -12.454256 0.457077)
     (xy -12.689407 0.558208) (xy -12.901492 0.735095) (xy -12.939435 0.776667) (xy -13.103798 1.020928) (xy -13.188301 1.283729) (xy -13.191924 1.555211) (xy -13.113650 1.825514) (xy -13.058719 1.931888)
     (xy -12.903852 2.141305) (xy -12.713360 2.292974) (xy -12.476504 2.391940) (xy -12.182546 2.443249) (xy -11.948584 2.453475) (xy -11.557000 2.455333) (xy -11.557000 4.614333) (xy -12.117917 4.612002)
     (xy -12.423834 4.605426) (xy -12.668867 4.587065) (xy -12.876260 4.554677) (xy -12.991594 4.527764) (xy -13.460675 4.369622) (xy -13.879740 4.150773) (xy -14.263099 3.862648) (xy -14.520789 3.612037)
     (xy -14.825133 3.244674) (xy -15.055222 2.866180) (xy -15.216878 2.462258) (xy -15.315921 2.018613) (xy -15.356908 1.558731) (xy -15.358763 1.173074) (xy -15.329863 0.842751) (xy -15.265464 0.542521)
     (xy -15.160820 0.247143) (xy -15.074588 0.057311) (xy -14.806730 -0.404729) (xy -14.483393 -0.802982) (xy -14.104904 -1.137117) (xy -13.671588 -1.406799) (xy -13.613665 -1.435921) (xy -13.320928 -1.568194)
     (xy -13.054802 -1.659721) (xy -12.786737 -1.716882) (xy -12.488181 -1.746057) (xy -12.192000 -1.753608) (xy -11.857351 -1.746381) )(layer F.SilkS) (width  0.010000)
  )
  (fp_poly (pts (xy 16.975666 -3.852333) (xy 16.340666 -3.852333) (xy 16.340666 -2.201333) (xy 15.875000 -2.201333) (xy 15.875000 -3.852333) (xy 15.240000 -3.852333) (xy 15.240000 -4.233333) (xy 16.975666 -4.233333)
     (xy 16.975666 -3.852333) )(layer F.SilkS) (width  0.010000)
  )
  (fp_poly (pts (xy 18.082392 -3.532985) (xy 18.167730 -3.282734) (xy 18.230971 -3.104740) (xy 18.276029 -2.990689) (xy 18.306818 -2.932266) (xy 18.327254 -2.921157) (xy 18.341251 -2.949048) (xy 18.346484 -2.972068)
     (xy 18.370415 -3.063009) (xy 18.416701 -3.214327) (xy 18.479178 -3.406681) (xy 18.551684 -3.620727) (xy 18.569628 -3.672417) (xy 18.765299 -4.233333) (xy 19.076983 -4.233333) (xy 19.227199 -4.229288)
     (xy 19.337727 -4.218603) (xy 19.387686 -4.203450) (xy 19.388666 -4.200874) (xy 19.391984 -4.145394) (xy 19.401100 -4.021121) (xy 19.414758 -3.843632) (xy 19.431702 -3.628506) (xy 19.450675 -3.391321)
     (xy 19.470421 -3.147655) (xy 19.489683 -2.913087) (xy 19.507206 -2.703195) (xy 19.521732 -2.533557) (xy 19.532006 -2.419752) (xy 19.533706 -2.402417) (xy 19.554010 -2.201333) (xy 19.103933 -2.201333)
     (xy 19.076475 -2.614083) (xy 19.053186 -2.960756) (xy 19.034321 -3.230931) (xy 19.019032 -3.432616) (xy 19.006468 -3.573817) (xy 18.995781 -3.662538) (xy 18.986122 -3.706787) (xy 18.976641 -3.714568)
     (xy 18.966489 -3.693888) (xy 18.963088 -3.683000) (xy 18.940183 -3.608257) (xy 18.896682 -3.468711) (xy 18.837572 -3.280271) (xy 18.767839 -3.058845) (xy 18.714273 -2.889250) (xy 18.496731 -2.201333)
     (xy 18.046972 -2.201333) (xy 17.824521 -2.931583) (xy 17.752542 -3.168321) (xy 17.689104 -3.377816) (xy 17.638354 -3.546302) (xy 17.604443 -3.660008) (xy 17.591739 -3.704167) (xy 17.582547 -3.692906)
     (xy 17.569873 -3.608298) (xy 17.554727 -3.461546) (xy 17.538117 -3.263849) (xy 17.521056 -3.026409) (xy 17.504551 -2.760427) (xy 17.501071 -2.698750) (xy 17.473515 -2.201333) (xy 17.060333 -2.201333)
     (xy 17.061532 -2.381250) (xy 17.065318 -2.482221) (xy 17.075062 -2.649749) (xy 17.089583 -2.866026) (xy 17.107695 -3.113246) (xy 17.124124 -3.323167) (xy 17.143957 -3.572689) (xy 17.161225 -3.796361)
     (xy 17.174806 -3.979113) (xy 17.183576 -4.105876) (xy 17.186425 -4.159250) (xy 17.197452 -4.196924) (xy 17.240570 -4.219315) (xy 17.332547 -4.230187) (xy 17.490153 -4.233302) (xy 17.516553 -4.233334)
     (xy 17.845774 -4.233334) (xy 18.082392 -3.532985) )(layer F.SilkS) (width  0.010000)
  )
  (fp_poly (pts (xy 3.743588 -4.801607) (xy 3.872355 -4.692640) (xy 3.964673 -4.526729) (xy 3.977586 -4.353425) (xy 3.913980 -4.185251) (xy 3.776741 -4.034728) (xy 3.709753 -3.987201) (xy 3.523014 -3.868774)
     (xy 3.770632 -3.886685) (xy 3.914945 -3.893207) (xy 4.007282 -3.880288) (xy 4.079742 -3.838477) (xy 4.146958 -3.775888) (xy 4.246914 -3.626920) (xy 4.281777 -3.461661) (xy 4.258065 -3.298549)
     (xy 4.182298 -3.156022) (xy 4.060993 -3.052519) (xy 3.900670 -3.006478) (xy 3.874654 -3.005667) (xy 3.686092 -3.036491) (xy 3.515994 -3.118384) (xy 3.429398 -3.195687) (xy 3.341988 -3.275129)
     (xy 3.292884 -3.306879) (xy 3.252388 -3.322385) (xy 3.246772 -3.298881) (xy 3.278226 -3.223178) (xy 3.321152 -3.136642) (xy 3.402367 -2.941953) (xy 3.424332 -2.781870) (xy 3.388943 -2.632432)
     (xy 3.365061 -2.581486) (xy 3.274262 -2.457612) (xy 3.149304 -2.391052) (xy 2.968962 -2.370681) (xy 2.962859 -2.370667) (xy 2.818420 -2.388702) (xy 2.704471 -2.456303) (xy 2.663743 -2.494410)
     (xy 2.564291 -2.650757) (xy 2.539461 -2.844043) (xy 2.589584 -3.070594) (xy 2.607533 -3.116914) (xy 2.675066 -3.280833) (xy 2.533449 -3.145847) (xy 2.342806 -3.004094) (xy 2.156113 -2.942932)
     (xy 1.978765 -2.962844) (xy 1.816159 -3.064313) (xy 1.799767 -3.080111) (xy 1.724017 -3.183898) (xy 1.695089 -3.313908) (xy 1.693333 -3.372762) (xy 1.724405 -3.576133) (xy 1.817279 -3.721821)
     (xy 1.971442 -3.809462) (xy 2.186379 -3.838689) (xy 2.334972 -3.829182) (xy 2.561166 -3.802069) (xy 2.342263 -3.940603) (xy 2.175998 -4.064154) (xy 2.078583 -4.189110) (xy 2.036508 -4.336497)
     (xy 2.032000 -4.423465) (xy 2.070074 -4.588199) (xy 2.172129 -4.720203) (xy 2.319910 -4.806898) (xy 2.495163 -4.835703) (xy 2.606943 -4.819692) (xy 2.747228 -4.756094) (xy 2.847020 -4.643501)
     (xy 2.915985 -4.468358) (xy 2.942728 -4.348840) (xy 2.992021 -4.085167) (xy 3.046023 -4.337469) (xy 3.102090 -4.546922) (xy 3.171037 -4.688408) (xy 3.263870 -4.778608) (xy 3.369114 -4.827193)
     (xy 3.567329 -4.854539) (xy 3.743588 -4.801607) )(layer F.SilkS) (width  0.010000)
  )
)
