M48
;DRILL file {KiCad no-vcs-found-bf44d39~61~ubuntu16.04.1} date Tue Jan 16 12:13:58 2018
;FORMAT={-:-/ absolute / inch / decimal}
FMAT,2
INCH,TZ
T1C0.0315
T2C0.0394
T3C0.0630
%
G90
G05
M72
T1
X4.45Y-2.15
X4.45Y-2.25
X4.45Y-2.35
X4.45Y-2.45
X4.45Y-2.55
X4.45Y-2.65
X4.45Y-2.75
X4.45Y-2.85
X4.45Y-2.95
X4.45Y-3.05
X4.45Y-3.15
X4.45Y-3.25
X4.45Y-3.35
X4.45Y-3.45
X4.45Y-3.55
X5.05Y-2.15
X5.05Y-2.25
X5.05Y-2.35
X5.05Y-2.45
X5.05Y-2.55
X5.05Y-2.65
X5.05Y-2.75
X5.05Y-2.85
X5.05Y-2.95
X5.05Y-3.05
X5.05Y-3.15
X5.05Y-3.25
X5.05Y-3.35
X5.05Y-3.45
X5.05Y-3.55
X4.05Y-2.15
X4.1484Y-2.15
T2
X5.3Y-3.3
X5.3984Y-3.3
X5.4969Y-3.3
X5.3Y-3.
X5.3984Y-3.
X5.4969Y-3.
X4.Y-2.8
X4.1Y-2.8
X4.2Y-2.8
X5.3Y-3.6
X5.3984Y-3.6
X5.4969Y-3.6
X5.3Y-2.7
X5.3984Y-2.7
X5.4969Y-2.7
X4.Y-3.
X4.1Y-3.
X4.2Y-3.
X5.3Y-2.4
X5.3984Y-2.4
X5.4969Y-2.4
X5.3Y-2.1
X5.3984Y-2.1
X5.4969Y-2.1
X4.Y-2.5
X4.0984Y-2.5
X4.1969Y-2.5
T3
X4.1Y-3.3
X4.1Y-3.5362
X4.285Y-3.4181
T0
M30
