G04 #@! TF.GenerationSoftware,KiCad,Pcbnew,no-vcs-found-bf44d39~61~ubuntu16.04.1*
G04 #@! TF.CreationDate,2018-01-16T12:13:44+13:00*
G04 #@! TF.ProjectId,led-strip-soft-robot,6C65642D73747269702D736F66742D72,rev?*
G04 #@! TF.SameCoordinates,Original*
G04 #@! TF.FileFunction,Legend,Bot*
G04 #@! TF.FilePolarity,Positive*
%FSLAX46Y46*%
G04 Gerber Fmt 4.6, Leading zero omitted, Abs format (unit mm)*
G04 Created by KiCad (PCBNEW no-vcs-found-bf44d39~61~ubuntu16.04.1) date Tue Jan 16 12:13:44 2018*
%MOMM*%
%LPD*%
G01*
G04 APERTURE LIST*
%ADD10C,0.010000*%
G04 APERTURE END LIST*
D10*
G36*
X118849397Y-75063845D02*
X118890260Y-75112133D01*
X118952476Y-75146752D01*
X119017465Y-75151594D01*
X119080530Y-75127742D01*
X119136977Y-75076278D01*
X119154799Y-75051157D01*
X119199209Y-74981130D01*
X119192493Y-75073987D01*
X119190047Y-75128104D01*
X119194892Y-75162731D01*
X119210571Y-75189903D01*
X119234042Y-75215109D01*
X119289905Y-75252593D01*
X119351877Y-75265666D01*
X119413044Y-75256774D01*
X119466491Y-75228361D01*
X119505305Y-75182872D01*
X119522570Y-75122751D01*
X119522875Y-75112995D01*
X119511316Y-75042284D01*
X119480605Y-74978498D01*
X119451617Y-74946024D01*
X119421826Y-74913245D01*
X119409920Y-74894831D01*
X119404105Y-74879645D01*
X119412919Y-74877539D01*
X119441308Y-74889334D01*
X119473759Y-74905432D01*
X119546767Y-74935887D01*
X119606798Y-74944124D01*
X119662837Y-74930853D01*
X119681942Y-74921898D01*
X119728395Y-74887848D01*
X119753355Y-74840989D01*
X119760994Y-74773360D01*
X119761000Y-74771072D01*
X119754236Y-74716907D01*
X119728886Y-74674176D01*
X119714596Y-74658903D01*
X119655966Y-74621609D01*
X119583483Y-74612298D01*
X119498527Y-74631094D01*
X119481157Y-74637824D01*
X119419687Y-74663149D01*
X119470307Y-74610043D01*
X119523464Y-74538552D01*
X119546400Y-74468542D01*
X119538933Y-74402037D01*
X119500882Y-74341059D01*
X119494958Y-74334912D01*
X119456038Y-74306506D01*
X119407284Y-74295658D01*
X119385214Y-74295000D01*
X119308950Y-74306652D01*
X119254317Y-74341479D01*
X119221451Y-74399290D01*
X119210491Y-74479892D01*
X119214056Y-74535614D01*
X119224224Y-74620437D01*
X119172273Y-74538348D01*
X119125942Y-74475999D01*
X119079083Y-74439468D01*
X119023813Y-74423690D01*
X118991200Y-74422000D01*
X118929425Y-74436277D01*
X118879923Y-74474548D01*
X118847413Y-74529966D01*
X118836611Y-74595686D01*
X118842615Y-74637603D01*
X118866464Y-74690210D01*
X118908687Y-74727632D01*
X118974365Y-74753494D01*
X119019184Y-74763523D01*
X119118062Y-74782008D01*
X119023449Y-74802258D01*
X118944904Y-74823283D01*
X118891846Y-74849139D01*
X118858022Y-74883951D01*
X118839802Y-74923417D01*
X118829548Y-74997748D01*
X118849397Y-75063845D01*
X118849397Y-75063845D01*
G37*
X118849397Y-75063845D02*
X118890260Y-75112133D01*
X118952476Y-75146752D01*
X119017465Y-75151594D01*
X119080530Y-75127742D01*
X119136977Y-75076278D01*
X119154799Y-75051157D01*
X119199209Y-74981130D01*
X119192493Y-75073987D01*
X119190047Y-75128104D01*
X119194892Y-75162731D01*
X119210571Y-75189903D01*
X119234042Y-75215109D01*
X119289905Y-75252593D01*
X119351877Y-75265666D01*
X119413044Y-75256774D01*
X119466491Y-75228361D01*
X119505305Y-75182872D01*
X119522570Y-75122751D01*
X119522875Y-75112995D01*
X119511316Y-75042284D01*
X119480605Y-74978498D01*
X119451617Y-74946024D01*
X119421826Y-74913245D01*
X119409920Y-74894831D01*
X119404105Y-74879645D01*
X119412919Y-74877539D01*
X119441308Y-74889334D01*
X119473759Y-74905432D01*
X119546767Y-74935887D01*
X119606798Y-74944124D01*
X119662837Y-74930853D01*
X119681942Y-74921898D01*
X119728395Y-74887848D01*
X119753355Y-74840989D01*
X119760994Y-74773360D01*
X119761000Y-74771072D01*
X119754236Y-74716907D01*
X119728886Y-74674176D01*
X119714596Y-74658903D01*
X119655966Y-74621609D01*
X119583483Y-74612298D01*
X119498527Y-74631094D01*
X119481157Y-74637824D01*
X119419687Y-74663149D01*
X119470307Y-74610043D01*
X119523464Y-74538552D01*
X119546400Y-74468542D01*
X119538933Y-74402037D01*
X119500882Y-74341059D01*
X119494958Y-74334912D01*
X119456038Y-74306506D01*
X119407284Y-74295658D01*
X119385214Y-74295000D01*
X119308950Y-74306652D01*
X119254317Y-74341479D01*
X119221451Y-74399290D01*
X119210491Y-74479892D01*
X119214056Y-74535614D01*
X119224224Y-74620437D01*
X119172273Y-74538348D01*
X119125942Y-74475999D01*
X119079083Y-74439468D01*
X119023813Y-74423690D01*
X118991200Y-74422000D01*
X118929425Y-74436277D01*
X118879923Y-74474548D01*
X118847413Y-74529966D01*
X118836611Y-74595686D01*
X118842615Y-74637603D01*
X118866464Y-74690210D01*
X118908687Y-74727632D01*
X118974365Y-74753494D01*
X119019184Y-74763523D01*
X119118062Y-74782008D01*
X119023449Y-74802258D01*
X118944904Y-74823283D01*
X118891846Y-74849139D01*
X118858022Y-74883951D01*
X118839802Y-74923417D01*
X118829548Y-74997748D01*
X118849397Y-75063845D01*
G36*
X119325130Y-80440897D02*
X119418974Y-80472898D01*
X119485722Y-80496614D01*
X119528491Y-80513510D01*
X119550400Y-80525056D01*
X119554566Y-80532720D01*
X119544107Y-80537969D01*
X119535474Y-80539931D01*
X119501371Y-80548905D01*
X119444627Y-80566263D01*
X119372494Y-80589692D01*
X119292227Y-80616881D01*
X119272843Y-80623610D01*
X119062500Y-80696987D01*
X119062500Y-80813868D01*
X119064016Y-80870199D01*
X119068024Y-80911647D01*
X119073706Y-80930382D01*
X119074672Y-80930750D01*
X119095477Y-80931994D01*
X119142079Y-80935412D01*
X119208637Y-80940534D01*
X119289310Y-80946888D01*
X119378254Y-80954003D01*
X119469629Y-80961408D01*
X119557592Y-80968631D01*
X119636301Y-80975202D01*
X119699916Y-80980649D01*
X119742593Y-80984502D01*
X119749093Y-80985139D01*
X119824500Y-80992754D01*
X119824500Y-80823975D01*
X119669718Y-80813678D01*
X119539716Y-80804944D01*
X119438400Y-80797870D01*
X119362768Y-80792137D01*
X119309818Y-80787425D01*
X119276548Y-80783418D01*
X119259955Y-80779796D01*
X119257036Y-80776240D01*
X119264791Y-80772433D01*
X119268875Y-80771158D01*
X119296903Y-80762568D01*
X119349233Y-80746256D01*
X119419898Y-80724089D01*
X119502933Y-80697939D01*
X119566531Y-80677852D01*
X119824500Y-80596274D01*
X119824500Y-80427614D01*
X119550656Y-80344195D01*
X119461879Y-80317203D01*
X119383318Y-80293414D01*
X119320136Y-80274383D01*
X119277496Y-80261666D01*
X119260937Y-80256902D01*
X119265160Y-80253455D01*
X119296888Y-80248702D01*
X119351920Y-80243022D01*
X119426056Y-80236794D01*
X119515096Y-80230396D01*
X119614840Y-80224206D01*
X119637968Y-80222901D01*
X119824500Y-80212568D01*
X119824500Y-80057625D01*
X119757031Y-80058074D01*
X119719167Y-80059494D01*
X119656344Y-80063148D01*
X119575240Y-80068593D01*
X119482532Y-80075385D01*
X119403812Y-80081546D01*
X119310241Y-80088983D01*
X119226364Y-80095459D01*
X119157832Y-80100552D01*
X119110296Y-80103841D01*
X119090281Y-80104909D01*
X119076153Y-80109044D01*
X119067756Y-80125213D01*
X119063679Y-80159705D01*
X119062511Y-80218807D01*
X119062499Y-80228707D01*
X119062499Y-80352165D01*
X119325130Y-80440897D01*
X119325130Y-80440897D01*
G37*
X119325130Y-80440897D02*
X119418974Y-80472898D01*
X119485722Y-80496614D01*
X119528491Y-80513510D01*
X119550400Y-80525056D01*
X119554566Y-80532720D01*
X119544107Y-80537969D01*
X119535474Y-80539931D01*
X119501371Y-80548905D01*
X119444627Y-80566263D01*
X119372494Y-80589692D01*
X119292227Y-80616881D01*
X119272843Y-80623610D01*
X119062500Y-80696987D01*
X119062500Y-80813868D01*
X119064016Y-80870199D01*
X119068024Y-80911647D01*
X119073706Y-80930382D01*
X119074672Y-80930750D01*
X119095477Y-80931994D01*
X119142079Y-80935412D01*
X119208637Y-80940534D01*
X119289310Y-80946888D01*
X119378254Y-80954003D01*
X119469629Y-80961408D01*
X119557592Y-80968631D01*
X119636301Y-80975202D01*
X119699916Y-80980649D01*
X119742593Y-80984502D01*
X119749093Y-80985139D01*
X119824500Y-80992754D01*
X119824500Y-80823975D01*
X119669718Y-80813678D01*
X119539716Y-80804944D01*
X119438400Y-80797870D01*
X119362768Y-80792137D01*
X119309818Y-80787425D01*
X119276548Y-80783418D01*
X119259955Y-80779796D01*
X119257036Y-80776240D01*
X119264791Y-80772433D01*
X119268875Y-80771158D01*
X119296903Y-80762568D01*
X119349233Y-80746256D01*
X119419898Y-80724089D01*
X119502933Y-80697939D01*
X119566531Y-80677852D01*
X119824500Y-80596274D01*
X119824500Y-80427614D01*
X119550656Y-80344195D01*
X119461879Y-80317203D01*
X119383318Y-80293414D01*
X119320136Y-80274383D01*
X119277496Y-80261666D01*
X119260937Y-80256902D01*
X119265160Y-80253455D01*
X119296888Y-80248702D01*
X119351920Y-80243022D01*
X119426056Y-80236794D01*
X119515096Y-80230396D01*
X119614840Y-80224206D01*
X119637968Y-80222901D01*
X119824500Y-80212568D01*
X119824500Y-80057625D01*
X119757031Y-80058074D01*
X119719167Y-80059494D01*
X119656344Y-80063148D01*
X119575240Y-80068593D01*
X119482532Y-80075385D01*
X119403812Y-80081546D01*
X119310241Y-80088983D01*
X119226364Y-80095459D01*
X119157832Y-80100552D01*
X119110296Y-80103841D01*
X119090281Y-80104909D01*
X119076153Y-80109044D01*
X119067756Y-80125213D01*
X119063679Y-80159705D01*
X119062511Y-80218807D01*
X119062499Y-80228707D01*
X119062499Y-80352165D01*
X119325130Y-80440897D01*
G36*
X119205375Y-80025875D02*
X119205375Y-79787750D01*
X119824500Y-79787750D01*
X119824500Y-79613125D01*
X119205375Y-79613125D01*
X119205375Y-79375000D01*
X119062500Y-79375000D01*
X119062500Y-80025875D01*
X119205375Y-80025875D01*
X119205375Y-80025875D01*
G37*
X119205375Y-80025875D02*
X119205375Y-79787750D01*
X119824500Y-79787750D01*
X119824500Y-79613125D01*
X119205375Y-79613125D01*
X119205375Y-79375000D01*
X119062500Y-79375000D01*
X119062500Y-80025875D01*
X119205375Y-80025875D01*
G36*
X119995107Y-69213493D02*
X120005931Y-69319087D01*
X120027416Y-69415802D01*
X120062111Y-69514661D01*
X120112562Y-69626686D01*
X120120820Y-69643625D01*
X120158215Y-69715777D01*
X120194687Y-69774890D01*
X120237050Y-69830176D01*
X120292122Y-69890851D01*
X120339084Y-69938665D01*
X120408369Y-70005893D01*
X120466124Y-70055884D01*
X120521555Y-70095442D01*
X120583866Y-70131377D01*
X120634125Y-70156852D01*
X120693224Y-70185721D01*
X120744898Y-70209884D01*
X120792599Y-70229786D01*
X120839779Y-70245869D01*
X120889890Y-70258575D01*
X120946385Y-70268346D01*
X121012714Y-70275626D01*
X121092330Y-70280856D01*
X121188686Y-70284480D01*
X121305232Y-70286940D01*
X121445422Y-70288678D01*
X121612707Y-70290137D01*
X121677906Y-70290660D01*
X122380375Y-70296309D01*
X122380375Y-69487115D01*
X121741406Y-69482026D01*
X121582259Y-69480727D01*
X121451646Y-69479479D01*
X121346354Y-69478092D01*
X121263168Y-69476371D01*
X121198872Y-69474123D01*
X121150253Y-69471157D01*
X121114096Y-69467280D01*
X121087188Y-69462298D01*
X121066312Y-69456018D01*
X121048255Y-69448249D01*
X121031000Y-69439427D01*
X120933022Y-69373450D01*
X120863425Y-69293267D01*
X120822144Y-69198779D01*
X120809098Y-69092496D01*
X120821404Y-68989654D01*
X120859328Y-68901472D01*
X120925660Y-68821940D01*
X120941250Y-68807712D01*
X121032847Y-68746075D01*
X121131398Y-68714387D01*
X121233204Y-68713028D01*
X121334567Y-68742381D01*
X121374457Y-68762980D01*
X121452989Y-68821055D01*
X121509865Y-68892490D01*
X121546977Y-68981311D01*
X121566218Y-69091545D01*
X121570053Y-69179281D01*
X121570750Y-69326125D01*
X122380375Y-69326125D01*
X122379500Y-69115781D01*
X122377034Y-69001062D01*
X122370149Y-68909175D01*
X122358003Y-68831402D01*
X122347911Y-68788152D01*
X122288608Y-68612247D01*
X122206540Y-68455097D01*
X122098493Y-68311338D01*
X122004513Y-68214704D01*
X121866752Y-68100575D01*
X121724817Y-68014291D01*
X121573346Y-67953671D01*
X121406979Y-67916529D01*
X121234524Y-67901159D01*
X121089902Y-67900464D01*
X120966031Y-67911301D01*
X120853445Y-67935451D01*
X120742678Y-67974692D01*
X120671491Y-68007029D01*
X120498226Y-68107476D01*
X120348881Y-68228727D01*
X120223581Y-68370661D01*
X120122450Y-68533154D01*
X120111529Y-68554875D01*
X120061927Y-68664652D01*
X120027604Y-68764449D01*
X120006169Y-68864973D01*
X119995228Y-68976932D01*
X119992397Y-69088000D01*
X119995107Y-69213493D01*
X119995107Y-69213493D01*
G37*
X119995107Y-69213493D02*
X120005931Y-69319087D01*
X120027416Y-69415802D01*
X120062111Y-69514661D01*
X120112562Y-69626686D01*
X120120820Y-69643625D01*
X120158215Y-69715777D01*
X120194687Y-69774890D01*
X120237050Y-69830176D01*
X120292122Y-69890851D01*
X120339084Y-69938665D01*
X120408369Y-70005893D01*
X120466124Y-70055884D01*
X120521555Y-70095442D01*
X120583866Y-70131377D01*
X120634125Y-70156852D01*
X120693224Y-70185721D01*
X120744898Y-70209884D01*
X120792599Y-70229786D01*
X120839779Y-70245869D01*
X120889890Y-70258575D01*
X120946385Y-70268346D01*
X121012714Y-70275626D01*
X121092330Y-70280856D01*
X121188686Y-70284480D01*
X121305232Y-70286940D01*
X121445422Y-70288678D01*
X121612707Y-70290137D01*
X121677906Y-70290660D01*
X122380375Y-70296309D01*
X122380375Y-69487115D01*
X121741406Y-69482026D01*
X121582259Y-69480727D01*
X121451646Y-69479479D01*
X121346354Y-69478092D01*
X121263168Y-69476371D01*
X121198872Y-69474123D01*
X121150253Y-69471157D01*
X121114096Y-69467280D01*
X121087188Y-69462298D01*
X121066312Y-69456018D01*
X121048255Y-69448249D01*
X121031000Y-69439427D01*
X120933022Y-69373450D01*
X120863425Y-69293267D01*
X120822144Y-69198779D01*
X120809098Y-69092496D01*
X120821404Y-68989654D01*
X120859328Y-68901472D01*
X120925660Y-68821940D01*
X120941250Y-68807712D01*
X121032847Y-68746075D01*
X121131398Y-68714387D01*
X121233204Y-68713028D01*
X121334567Y-68742381D01*
X121374457Y-68762980D01*
X121452989Y-68821055D01*
X121509865Y-68892490D01*
X121546977Y-68981311D01*
X121566218Y-69091545D01*
X121570053Y-69179281D01*
X121570750Y-69326125D01*
X122380375Y-69326125D01*
X122379500Y-69115781D01*
X122377034Y-69001062D01*
X122370149Y-68909175D01*
X122358003Y-68831402D01*
X122347911Y-68788152D01*
X122288608Y-68612247D01*
X122206540Y-68455097D01*
X122098493Y-68311338D01*
X122004513Y-68214704D01*
X121866752Y-68100575D01*
X121724817Y-68014291D01*
X121573346Y-67953671D01*
X121406979Y-67916529D01*
X121234524Y-67901159D01*
X121089902Y-67900464D01*
X120966031Y-67911301D01*
X120853445Y-67935451D01*
X120742678Y-67974692D01*
X120671491Y-68007029D01*
X120498226Y-68107476D01*
X120348881Y-68228727D01*
X120223581Y-68370661D01*
X120122450Y-68533154D01*
X120111529Y-68554875D01*
X120061927Y-68664652D01*
X120027604Y-68764449D01*
X120006169Y-68864973D01*
X119995228Y-68976932D01*
X119992397Y-69088000D01*
X119995107Y-69213493D01*
G36*
X120110250Y-68310125D02*
X120110249Y-68162193D01*
X120115587Y-68040766D01*
X120132673Y-67943903D01*
X120163114Y-67866079D01*
X120208518Y-67801773D01*
X120218155Y-67791463D01*
X120241516Y-67766959D01*
X120262165Y-67745905D01*
X120282577Y-67728030D01*
X120305229Y-67713062D01*
X120332595Y-67700730D01*
X120367152Y-67690763D01*
X120411376Y-67682888D01*
X120467741Y-67676836D01*
X120538723Y-67672333D01*
X120626799Y-67669110D01*
X120734444Y-67666893D01*
X120864133Y-67665413D01*
X121018342Y-67664398D01*
X121199547Y-67663576D01*
X121392156Y-67662757D01*
X122380375Y-67658327D01*
X122380375Y-66849625D01*
X121380250Y-66849625D01*
X121380250Y-66325750D01*
X120554750Y-66325750D01*
X120554750Y-66849625D01*
X120450727Y-66849625D01*
X120300829Y-66862266D01*
X120145275Y-66900898D01*
X119979966Y-66966587D01*
X119955062Y-66978363D01*
X119873389Y-67019745D01*
X119809258Y-67058432D01*
X119751474Y-67102366D01*
X119688840Y-67159489D01*
X119660285Y-67187448D01*
X119553851Y-67303523D01*
X119470364Y-67420433D01*
X119402617Y-67548943D01*
X119375746Y-67612416D01*
X119344476Y-67701467D01*
X119322595Y-67791150D01*
X119308852Y-67889693D01*
X119301998Y-68005324D01*
X119300625Y-68106665D01*
X119300625Y-68310125D01*
X120110250Y-68310125D01*
X120110250Y-68310125D01*
G37*
X120110250Y-68310125D02*
X120110249Y-68162193D01*
X120115587Y-68040766D01*
X120132673Y-67943903D01*
X120163114Y-67866079D01*
X120208518Y-67801773D01*
X120218155Y-67791463D01*
X120241516Y-67766959D01*
X120262165Y-67745905D01*
X120282577Y-67728030D01*
X120305229Y-67713062D01*
X120332595Y-67700730D01*
X120367152Y-67690763D01*
X120411376Y-67682888D01*
X120467741Y-67676836D01*
X120538723Y-67672333D01*
X120626799Y-67669110D01*
X120734444Y-67666893D01*
X120864133Y-67665413D01*
X121018342Y-67664398D01*
X121199547Y-67663576D01*
X121392156Y-67662757D01*
X122380375Y-67658327D01*
X122380375Y-66849625D01*
X121380250Y-66849625D01*
X121380250Y-66325750D01*
X120554750Y-66325750D01*
X120554750Y-66849625D01*
X120450727Y-66849625D01*
X120300829Y-66862266D01*
X120145275Y-66900898D01*
X119979966Y-66966587D01*
X119955062Y-66978363D01*
X119873389Y-67019745D01*
X119809258Y-67058432D01*
X119751474Y-67102366D01*
X119688840Y-67159489D01*
X119660285Y-67187448D01*
X119553851Y-67303523D01*
X119470364Y-67420433D01*
X119402617Y-67548943D01*
X119375746Y-67612416D01*
X119344476Y-67701467D01*
X119322595Y-67791150D01*
X119308852Y-67889693D01*
X119301998Y-68005324D01*
X119300625Y-68106665D01*
X119300625Y-68310125D01*
X120110250Y-68310125D01*
G36*
X120828328Y-76200000D02*
X120818156Y-76235718D01*
X120806488Y-76280433D01*
X120798914Y-76312748D01*
X120784231Y-76336491D01*
X120746156Y-76381130D01*
X120684958Y-76446388D01*
X120600904Y-76531988D01*
X120494263Y-76637653D01*
X120365302Y-76763107D01*
X120338810Y-76788664D01*
X120239798Y-76884452D01*
X120148504Y-76973514D01*
X120067350Y-77053430D01*
X119998757Y-77121783D01*
X119945146Y-77176156D01*
X119908937Y-77214131D01*
X119892553Y-77233289D01*
X119891857Y-77234985D01*
X119904245Y-77251116D01*
X119934893Y-77285446D01*
X119980009Y-77334066D01*
X120035802Y-77393063D01*
X120098479Y-77458527D01*
X120164251Y-77526547D01*
X120229324Y-77593213D01*
X120289909Y-77654613D01*
X120342212Y-77706836D01*
X120382443Y-77745972D01*
X120406811Y-77768110D01*
X120412116Y-77771625D01*
X120426867Y-77760995D01*
X120460938Y-77731148D01*
X120511027Y-77685143D01*
X120573833Y-77626043D01*
X120646053Y-77556906D01*
X120697367Y-77507173D01*
X120968925Y-77242721D01*
X120994383Y-77280954D01*
X121035277Y-77332295D01*
X121094875Y-77394588D01*
X121165599Y-77460966D01*
X121239874Y-77524566D01*
X121310122Y-77578521D01*
X121356437Y-77609017D01*
X121429601Y-77647910D01*
X121514921Y-77687077D01*
X121594019Y-77718086D01*
X121594562Y-77718274D01*
X121638826Y-77732952D01*
X121678585Y-77744060D01*
X121719487Y-77752209D01*
X121767174Y-77758007D01*
X121827292Y-77762064D01*
X121905486Y-77764988D01*
X122007400Y-77767390D01*
X122058906Y-77768395D01*
X122396250Y-77774783D01*
X122396250Y-76962000D01*
X122168585Y-76962000D01*
X122040907Y-76959751D01*
X121942768Y-76953048D01*
X121875048Y-76941956D01*
X121866244Y-76939525D01*
X121769887Y-76895928D01*
X121692707Y-76831971D01*
X121636104Y-76752676D01*
X121601478Y-76663063D01*
X121590228Y-76568153D01*
X121603753Y-76472965D01*
X121643453Y-76382521D01*
X121693207Y-76318788D01*
X121735842Y-76278156D01*
X121777507Y-76247942D01*
X121823871Y-76226638D01*
X121880600Y-76212734D01*
X121953363Y-76204724D01*
X122047825Y-76201099D01*
X122138281Y-76200348D01*
X122396250Y-76200000D01*
X122396250Y-75374500D01*
X119411750Y-75374500D01*
X119411750Y-76200000D01*
X120828328Y-76200000D01*
X120828328Y-76200000D01*
G37*
X120828328Y-76200000D02*
X120818156Y-76235718D01*
X120806488Y-76280433D01*
X120798914Y-76312748D01*
X120784231Y-76336491D01*
X120746156Y-76381130D01*
X120684958Y-76446388D01*
X120600904Y-76531988D01*
X120494263Y-76637653D01*
X120365302Y-76763107D01*
X120338810Y-76788664D01*
X120239798Y-76884452D01*
X120148504Y-76973514D01*
X120067350Y-77053430D01*
X119998757Y-77121783D01*
X119945146Y-77176156D01*
X119908937Y-77214131D01*
X119892553Y-77233289D01*
X119891857Y-77234985D01*
X119904245Y-77251116D01*
X119934893Y-77285446D01*
X119980009Y-77334066D01*
X120035802Y-77393063D01*
X120098479Y-77458527D01*
X120164251Y-77526547D01*
X120229324Y-77593213D01*
X120289909Y-77654613D01*
X120342212Y-77706836D01*
X120382443Y-77745972D01*
X120406811Y-77768110D01*
X120412116Y-77771625D01*
X120426867Y-77760995D01*
X120460938Y-77731148D01*
X120511027Y-77685143D01*
X120573833Y-77626043D01*
X120646053Y-77556906D01*
X120697367Y-77507173D01*
X120968925Y-77242721D01*
X120994383Y-77280954D01*
X121035277Y-77332295D01*
X121094875Y-77394588D01*
X121165599Y-77460966D01*
X121239874Y-77524566D01*
X121310122Y-77578521D01*
X121356437Y-77609017D01*
X121429601Y-77647910D01*
X121514921Y-77687077D01*
X121594019Y-77718086D01*
X121594562Y-77718274D01*
X121638826Y-77732952D01*
X121678585Y-77744060D01*
X121719487Y-77752209D01*
X121767174Y-77758007D01*
X121827292Y-77762064D01*
X121905486Y-77764988D01*
X122007400Y-77767390D01*
X122058906Y-77768395D01*
X122396250Y-77774783D01*
X122396250Y-76962000D01*
X122168585Y-76962000D01*
X122040907Y-76959751D01*
X121942768Y-76953048D01*
X121875048Y-76941956D01*
X121866244Y-76939525D01*
X121769887Y-76895928D01*
X121692707Y-76831971D01*
X121636104Y-76752676D01*
X121601478Y-76663063D01*
X121590228Y-76568153D01*
X121603753Y-76472965D01*
X121643453Y-76382521D01*
X121693207Y-76318788D01*
X121735842Y-76278156D01*
X121777507Y-76247942D01*
X121823871Y-76226638D01*
X121880600Y-76212734D01*
X121953363Y-76204724D01*
X122047825Y-76201099D01*
X122138281Y-76200348D01*
X122396250Y-76200000D01*
X122396250Y-75374500D01*
X119411750Y-75374500D01*
X119411750Y-76200000D01*
X120828328Y-76200000D01*
G36*
X122396250Y-75152250D02*
X122396250Y-74342625D01*
X119983250Y-74342625D01*
X119983250Y-75152250D01*
X122396250Y-75152250D01*
X122396250Y-75152250D01*
G37*
X122396250Y-75152250D02*
X122396250Y-74342625D01*
X119983250Y-74342625D01*
X119983250Y-75152250D01*
X122396250Y-75152250D01*
G36*
X119983250Y-74168000D02*
X120804818Y-74168000D01*
X120812000Y-74081393D01*
X120835806Y-73979607D01*
X120887368Y-73888534D01*
X120963075Y-73813960D01*
X120990462Y-73795357D01*
X121068148Y-73747312D01*
X122396250Y-73738374D01*
X122396250Y-72911818D01*
X121685843Y-72917760D01*
X121516309Y-72919238D01*
X121375308Y-72920685D01*
X121259622Y-72922262D01*
X121166035Y-72924129D01*
X121091329Y-72926446D01*
X121032288Y-72929372D01*
X120985695Y-72933070D01*
X120948333Y-72937697D01*
X120916984Y-72943415D01*
X120888433Y-72950383D01*
X120859461Y-72958763D01*
X120858936Y-72958921D01*
X120674675Y-73030282D01*
X120507655Y-73126643D01*
X120359958Y-73245727D01*
X120233666Y-73385256D01*
X120130859Y-73542952D01*
X120053620Y-73716536D01*
X120006177Y-73892213D01*
X119994589Y-73963537D01*
X119986346Y-74034823D01*
X119983249Y-74090021D01*
X119983250Y-74168000D01*
X119983250Y-74168000D01*
G37*
X119983250Y-74168000D02*
X120804818Y-74168000D01*
X120812000Y-74081393D01*
X120835806Y-73979607D01*
X120887368Y-73888534D01*
X120963075Y-73813960D01*
X120990462Y-73795357D01*
X121068148Y-73747312D01*
X122396250Y-73738374D01*
X122396250Y-72911818D01*
X121685843Y-72917760D01*
X121516309Y-72919238D01*
X121375308Y-72920685D01*
X121259622Y-72922262D01*
X121166035Y-72924129D01*
X121091329Y-72926446D01*
X121032288Y-72929372D01*
X120985695Y-72933070D01*
X120948333Y-72937697D01*
X120916984Y-72943415D01*
X120888433Y-72950383D01*
X120859461Y-72958763D01*
X120858936Y-72958921D01*
X120674675Y-73030282D01*
X120507655Y-73126643D01*
X120359958Y-73245727D01*
X120233666Y-73385256D01*
X120130859Y-73542952D01*
X120053620Y-73716536D01*
X120006177Y-73892213D01*
X119994589Y-73963537D01*
X119986346Y-74034823D01*
X119983249Y-74090021D01*
X119983250Y-74168000D01*
G36*
X120322346Y-71199375D02*
X120491855Y-71199549D01*
X120653690Y-71200053D01*
X120804734Y-71200853D01*
X120941867Y-71201917D01*
X121061971Y-71203212D01*
X121161926Y-71204708D01*
X121238614Y-71206372D01*
X121288916Y-71208170D01*
X121307043Y-71209531D01*
X121363516Y-71224001D01*
X121427634Y-71250027D01*
X121463470Y-71269062D01*
X121546603Y-71334674D01*
X121604319Y-71413086D01*
X121637857Y-71499848D01*
X121648453Y-71590509D01*
X121637345Y-71680616D01*
X121605771Y-71765720D01*
X121554968Y-71841369D01*
X121486174Y-71903111D01*
X121400625Y-71946495D01*
X121299560Y-71967070D01*
X121269125Y-71968138D01*
X121164524Y-71956615D01*
X121076343Y-71920080D01*
X120998171Y-71855586D01*
X120979692Y-71835042D01*
X120939017Y-71779309D01*
X120911740Y-71719295D01*
X120895722Y-71647250D01*
X120888824Y-71555423D01*
X120888125Y-71503126D01*
X120888125Y-71358125D01*
X120057913Y-71358125D01*
X120067308Y-71576406D01*
X120077769Y-71724680D01*
X120096650Y-71850910D01*
X120126153Y-71964186D01*
X120168482Y-72073598D01*
X120207041Y-72152983D01*
X120308779Y-72315369D01*
X120432713Y-72456349D01*
X120576278Y-72574393D01*
X120736912Y-72667971D01*
X120912051Y-72735552D01*
X121099133Y-72775607D01*
X121269125Y-72786875D01*
X121440697Y-72777031D01*
X121598159Y-72745706D01*
X121752993Y-72690211D01*
X121824750Y-72656695D01*
X121941138Y-72586118D01*
X122057912Y-72492519D01*
X122167327Y-72383567D01*
X122261637Y-72266932D01*
X122329965Y-72156426D01*
X122396188Y-72000357D01*
X122442246Y-71831826D01*
X122466591Y-71659749D01*
X122467676Y-71493045D01*
X122458886Y-71413687D01*
X122413689Y-71223266D01*
X122340534Y-71045958D01*
X122241369Y-70884219D01*
X122118147Y-70740507D01*
X121972816Y-70617277D01*
X121807327Y-70516988D01*
X121713452Y-70474516D01*
X121671511Y-70458044D01*
X121631416Y-70443853D01*
X121590531Y-70431772D01*
X121546221Y-70421633D01*
X121495849Y-70413266D01*
X121436780Y-70406502D01*
X121366377Y-70401170D01*
X121282006Y-70397103D01*
X121181030Y-70394130D01*
X121060814Y-70392082D01*
X120918721Y-70390790D01*
X120752116Y-70390084D01*
X120558363Y-70389795D01*
X120394603Y-70389750D01*
X119411750Y-70389750D01*
X119411750Y-71199375D01*
X120322346Y-71199375D01*
X120322346Y-71199375D01*
G37*
X120322346Y-71199375D02*
X120491855Y-71199549D01*
X120653690Y-71200053D01*
X120804734Y-71200853D01*
X120941867Y-71201917D01*
X121061971Y-71203212D01*
X121161926Y-71204708D01*
X121238614Y-71206372D01*
X121288916Y-71208170D01*
X121307043Y-71209531D01*
X121363516Y-71224001D01*
X121427634Y-71250027D01*
X121463470Y-71269062D01*
X121546603Y-71334674D01*
X121604319Y-71413086D01*
X121637857Y-71499848D01*
X121648453Y-71590509D01*
X121637345Y-71680616D01*
X121605771Y-71765720D01*
X121554968Y-71841369D01*
X121486174Y-71903111D01*
X121400625Y-71946495D01*
X121299560Y-71967070D01*
X121269125Y-71968138D01*
X121164524Y-71956615D01*
X121076343Y-71920080D01*
X120998171Y-71855586D01*
X120979692Y-71835042D01*
X120939017Y-71779309D01*
X120911740Y-71719295D01*
X120895722Y-71647250D01*
X120888824Y-71555423D01*
X120888125Y-71503126D01*
X120888125Y-71358125D01*
X120057913Y-71358125D01*
X120067308Y-71576406D01*
X120077769Y-71724680D01*
X120096650Y-71850910D01*
X120126153Y-71964186D01*
X120168482Y-72073598D01*
X120207041Y-72152983D01*
X120308779Y-72315369D01*
X120432713Y-72456349D01*
X120576278Y-72574393D01*
X120736912Y-72667971D01*
X120912051Y-72735552D01*
X121099133Y-72775607D01*
X121269125Y-72786875D01*
X121440697Y-72777031D01*
X121598159Y-72745706D01*
X121752993Y-72690211D01*
X121824750Y-72656695D01*
X121941138Y-72586118D01*
X122057912Y-72492519D01*
X122167327Y-72383567D01*
X122261637Y-72266932D01*
X122329965Y-72156426D01*
X122396188Y-72000357D01*
X122442246Y-71831826D01*
X122466591Y-71659749D01*
X122467676Y-71493045D01*
X122458886Y-71413687D01*
X122413689Y-71223266D01*
X122340534Y-71045958D01*
X122241369Y-70884219D01*
X122118147Y-70740507D01*
X121972816Y-70617277D01*
X121807327Y-70516988D01*
X121713452Y-70474516D01*
X121671511Y-70458044D01*
X121631416Y-70443853D01*
X121590531Y-70431772D01*
X121546221Y-70421633D01*
X121495849Y-70413266D01*
X121436780Y-70406502D01*
X121366377Y-70401170D01*
X121282006Y-70397103D01*
X121181030Y-70394130D01*
X121060814Y-70392082D01*
X120918721Y-70390790D01*
X120752116Y-70390084D01*
X120558363Y-70389795D01*
X120394603Y-70389750D01*
X119411750Y-70389750D01*
X119411750Y-71199375D01*
X120322346Y-71199375D01*
G36*
X120052993Y-79104154D02*
X120073568Y-79235461D01*
X120111243Y-79363506D01*
X120168788Y-79500192D01*
X120176919Y-79517241D01*
X120214711Y-79592671D01*
X120249057Y-79651894D01*
X120286631Y-79704128D01*
X120334107Y-79758592D01*
X120398159Y-79824504D01*
X120402512Y-79828862D01*
X120469369Y-79894077D01*
X120524244Y-79942330D01*
X120576356Y-79980295D01*
X120634923Y-80014646D01*
X120709163Y-80052056D01*
X120714133Y-80054455D01*
X120852601Y-80114496D01*
X120981041Y-80154347D01*
X121111354Y-80176773D01*
X121255441Y-80184545D01*
X121273688Y-80184625D01*
X121468735Y-80169487D01*
X121654854Y-80125200D01*
X121829317Y-80053447D01*
X121989400Y-79955915D01*
X122132373Y-79834289D01*
X122255511Y-79690253D01*
X122356086Y-79525494D01*
X122363183Y-79511249D01*
X122396098Y-79438999D01*
X122426507Y-79363448D01*
X122448792Y-79298743D01*
X122451961Y-79287687D01*
X122468643Y-79202626D01*
X122479729Y-79097313D01*
X122484959Y-78982434D01*
X122484071Y-78868678D01*
X122476804Y-78766730D01*
X122466286Y-78701141D01*
X122409070Y-78514340D01*
X122325821Y-78343129D01*
X122219090Y-78189445D01*
X122091429Y-78055225D01*
X121945389Y-77942404D01*
X121783520Y-77852919D01*
X121608375Y-77788707D01*
X121422504Y-77751704D01*
X121261627Y-77745189D01*
X121261627Y-78554028D01*
X121358828Y-78565281D01*
X121451463Y-78600460D01*
X121535150Y-78659034D01*
X121605502Y-78740471D01*
X121658137Y-78844240D01*
X121659958Y-78849256D01*
X121678412Y-78926435D01*
X121676326Y-79005408D01*
X121658518Y-79082399D01*
X121614195Y-79179920D01*
X121547538Y-79260366D01*
X121463844Y-79321198D01*
X121368413Y-79359875D01*
X121266543Y-79373858D01*
X121163533Y-79360607D01*
X121114132Y-79343352D01*
X121019383Y-79287176D01*
X120944830Y-79211791D01*
X120892231Y-79122358D01*
X120863348Y-79024040D01*
X120859938Y-78921998D01*
X120883764Y-78821393D01*
X120914875Y-78758914D01*
X120986486Y-78669145D01*
X121071072Y-78605429D01*
X121164247Y-78567234D01*
X121261627Y-78554028D01*
X121261627Y-77745189D01*
X121228458Y-77743845D01*
X121206352Y-77744864D01*
X121071856Y-77756771D01*
X120955776Y-77778397D01*
X120845458Y-77812923D01*
X120728248Y-77863531D01*
X120721437Y-77866802D01*
X120557265Y-77963098D01*
X120412678Y-78082770D01*
X120289490Y-78222881D01*
X120189520Y-78380493D01*
X120114583Y-78552669D01*
X120066497Y-78736473D01*
X120047078Y-78928966D01*
X120046750Y-78957686D01*
X120052993Y-79104154D01*
X120052993Y-79104154D01*
G37*
X120052993Y-79104154D02*
X120073568Y-79235461D01*
X120111243Y-79363506D01*
X120168788Y-79500192D01*
X120176919Y-79517241D01*
X120214711Y-79592671D01*
X120249057Y-79651894D01*
X120286631Y-79704128D01*
X120334107Y-79758592D01*
X120398159Y-79824504D01*
X120402512Y-79828862D01*
X120469369Y-79894077D01*
X120524244Y-79942330D01*
X120576356Y-79980295D01*
X120634923Y-80014646D01*
X120709163Y-80052056D01*
X120714133Y-80054455D01*
X120852601Y-80114496D01*
X120981041Y-80154347D01*
X121111354Y-80176773D01*
X121255441Y-80184545D01*
X121273688Y-80184625D01*
X121468735Y-80169487D01*
X121654854Y-80125200D01*
X121829317Y-80053447D01*
X121989400Y-79955915D01*
X122132373Y-79834289D01*
X122255511Y-79690253D01*
X122356086Y-79525494D01*
X122363183Y-79511249D01*
X122396098Y-79438999D01*
X122426507Y-79363448D01*
X122448792Y-79298743D01*
X122451961Y-79287687D01*
X122468643Y-79202626D01*
X122479729Y-79097313D01*
X122484959Y-78982434D01*
X122484071Y-78868678D01*
X122476804Y-78766730D01*
X122466286Y-78701141D01*
X122409070Y-78514340D01*
X122325821Y-78343129D01*
X122219090Y-78189445D01*
X122091429Y-78055225D01*
X121945389Y-77942404D01*
X121783520Y-77852919D01*
X121608375Y-77788707D01*
X121422504Y-77751704D01*
X121261627Y-77745189D01*
X121261627Y-78554028D01*
X121358828Y-78565281D01*
X121451463Y-78600460D01*
X121535150Y-78659034D01*
X121605502Y-78740471D01*
X121658137Y-78844240D01*
X121659958Y-78849256D01*
X121678412Y-78926435D01*
X121676326Y-79005408D01*
X121658518Y-79082399D01*
X121614195Y-79179920D01*
X121547538Y-79260366D01*
X121463844Y-79321198D01*
X121368413Y-79359875D01*
X121266543Y-79373858D01*
X121163533Y-79360607D01*
X121114132Y-79343352D01*
X121019383Y-79287176D01*
X120944830Y-79211791D01*
X120892231Y-79122358D01*
X120863348Y-79024040D01*
X120859938Y-78921998D01*
X120883764Y-78821393D01*
X120914875Y-78758914D01*
X120986486Y-78669145D01*
X121071072Y-78605429D01*
X121164247Y-78567234D01*
X121261627Y-78554028D01*
X121261627Y-77745189D01*
X121228458Y-77743845D01*
X121206352Y-77744864D01*
X121071856Y-77756771D01*
X120955776Y-77778397D01*
X120845458Y-77812923D01*
X120728248Y-77863531D01*
X120721437Y-77866802D01*
X120557265Y-77963098D01*
X120412678Y-78082770D01*
X120289490Y-78222881D01*
X120189520Y-78380493D01*
X120114583Y-78552669D01*
X120066497Y-78736473D01*
X120047078Y-78928966D01*
X120046750Y-78957686D01*
X120052993Y-79104154D01*
M02*
