G04 #@! TF.GenerationSoftware,KiCad,Pcbnew,no-vcs-found-bf44d39~61~ubuntu16.04.1*
G04 #@! TF.CreationDate,2018-01-16T12:13:44+13:00*
G04 #@! TF.ProjectId,led-strip-soft-robot,6C65642D73747269702D736F66742D72,rev?*
G04 #@! TF.SameCoordinates,Original*
G04 #@! TF.FileFunction,Legend,Top*
G04 #@! TF.FilePolarity,Positive*
%FSLAX46Y46*%
G04 Gerber Fmt 4.6, Leading zero omitted, Abs format (unit mm)*
G04 Created by KiCad (PCBNEW no-vcs-found-bf44d39~61~ubuntu16.04.1) date Tue Jan 16 12:13:44 2018*
%MOMM*%
%LPD*%
G01*
G04 APERTURE LIST*
%ADD10C,0.300000*%
%ADD11C,0.120000*%
%ADD12C,0.010000*%
%ADD13C,0.150000*%
G04 APERTURE END LIST*
D10*
X105858571Y-82224285D02*
X107358571Y-81867142D01*
X106287142Y-81581428D01*
X107358571Y-81295714D01*
X105858571Y-80938571D01*
X105787142Y-79295714D02*
X107715714Y-80581428D01*
X105858571Y-78510000D02*
X105858571Y-78224285D01*
X105930000Y-78081428D01*
X106072857Y-77938571D01*
X106358571Y-77867142D01*
X106858571Y-77867142D01*
X107144285Y-77938571D01*
X107287142Y-78081428D01*
X107358571Y-78224285D01*
X107358571Y-78510000D01*
X107287142Y-78652857D01*
X107144285Y-78795714D01*
X106858571Y-78867142D01*
X106358571Y-78867142D01*
X106072857Y-78795714D01*
X105930000Y-78652857D01*
X105858571Y-78510000D01*
X104818571Y-78275714D02*
X104104285Y-78775714D01*
X104818571Y-79132857D02*
X103318571Y-79132857D01*
X103318571Y-78561428D01*
X103390000Y-78418571D01*
X103461428Y-78347142D01*
X103604285Y-78275714D01*
X103818571Y-78275714D01*
X103961428Y-78347142D01*
X104032857Y-78418571D01*
X104104285Y-78561428D01*
X104104285Y-79132857D01*
X101492857Y-78632857D02*
X101564285Y-78418571D01*
X101635714Y-78347142D01*
X101778571Y-78275714D01*
X101992857Y-78275714D01*
X102135714Y-78347142D01*
X102207142Y-78418571D01*
X102278571Y-78561428D01*
X102278571Y-79132857D01*
X100778571Y-79132857D01*
X100778571Y-78632857D01*
X100850000Y-78490000D01*
X100921428Y-78418571D01*
X101064285Y-78347142D01*
X101207142Y-78347142D01*
X101350000Y-78418571D01*
X101421428Y-78490000D01*
X101492857Y-78632857D01*
X101492857Y-79132857D01*
D11*
X99300000Y-82780000D02*
X101040000Y-82780000D01*
X99300000Y-84520000D02*
X99300000Y-82780000D01*
X108740000Y-83020000D02*
X108740000Y-85020000D01*
X105940000Y-83020000D02*
X108740000Y-83020000D01*
X99540000Y-83020000D02*
X102340000Y-83020000D01*
X99540000Y-97620000D02*
X99540000Y-83020000D01*
X108740000Y-97620000D02*
X99540000Y-97620000D01*
X108740000Y-88620000D02*
X108740000Y-97620000D01*
X129670000Y-50670000D02*
X111630000Y-50670000D01*
X129670000Y-94110000D02*
X129670000Y-50670000D01*
X111630000Y-94110000D02*
X129670000Y-94110000D01*
X114300000Y-91440000D02*
X111630000Y-91440000D01*
X114300000Y-55880000D02*
X114300000Y-91440000D01*
X114300000Y-55880000D02*
X111630000Y-55880000D01*
X127000000Y-91440000D02*
X129670000Y-91440000D01*
X127000000Y-53340000D02*
X127000000Y-91440000D01*
X127000000Y-53340000D02*
X129670000Y-53340000D01*
X111630000Y-50670000D02*
X111630000Y-53340000D01*
X111630000Y-55880000D02*
X111630000Y-94110000D01*
X114300000Y-53340000D02*
X111630000Y-53340000D01*
X114300000Y-55880000D02*
X114300000Y-53340000D01*
X108010000Y-69790000D02*
X108010000Y-71120000D01*
X106680000Y-69790000D02*
X108010000Y-69790000D01*
X105410000Y-69790000D02*
X105410000Y-72450000D01*
X105410000Y-72450000D02*
X100270000Y-72450000D01*
X105410000Y-69790000D02*
X100270000Y-69790000D01*
X100270000Y-69790000D02*
X100270000Y-72450000D01*
X108010000Y-74870000D02*
X108010000Y-76200000D01*
X106680000Y-74870000D02*
X108010000Y-74870000D01*
X105410000Y-74870000D02*
X105410000Y-77530000D01*
X105410000Y-77530000D02*
X100270000Y-77530000D01*
X105410000Y-74870000D02*
X100270000Y-74870000D01*
X100270000Y-74870000D02*
X100270000Y-77530000D01*
X131770000Y-50590000D02*
X131770000Y-53090000D01*
X134270000Y-50590000D02*
X131770000Y-50590000D01*
X141420000Y-56090000D02*
X137120000Y-56090000D01*
X141420000Y-53140000D02*
X141420000Y-56090000D01*
X142170000Y-53140000D02*
X141420000Y-53140000D01*
X132820000Y-56090000D02*
X137120000Y-56090000D01*
X132820000Y-53140000D02*
X132820000Y-56090000D01*
X132070000Y-53140000D02*
X132820000Y-53140000D01*
X142170000Y-50890000D02*
X140370000Y-50890000D01*
X142170000Y-51640000D02*
X142170000Y-50890000D01*
X140370000Y-51640000D02*
X142170000Y-51640000D01*
X140370000Y-50890000D02*
X140370000Y-51640000D01*
X133870000Y-50890000D02*
X132070000Y-50890000D01*
X133870000Y-51640000D02*
X133870000Y-50890000D01*
X132070000Y-51640000D02*
X133870000Y-51640000D01*
X132070000Y-50890000D02*
X132070000Y-51640000D01*
X138870000Y-50890000D02*
X135370000Y-50890000D01*
X138870000Y-51640000D02*
X138870000Y-50890000D01*
X135370000Y-51640000D02*
X138870000Y-51640000D01*
X135370000Y-50890000D02*
X135370000Y-51640000D01*
X142170000Y-50890000D02*
X132070000Y-50890000D01*
X142170000Y-56840000D02*
X142170000Y-50890000D01*
X132070000Y-56840000D02*
X142170000Y-56840000D01*
X132070000Y-50890000D02*
X132070000Y-56840000D01*
X132070000Y-58510000D02*
X132070000Y-64460000D01*
X132070000Y-64460000D02*
X142170000Y-64460000D01*
X142170000Y-64460000D02*
X142170000Y-58510000D01*
X142170000Y-58510000D02*
X132070000Y-58510000D01*
X135370000Y-58510000D02*
X135370000Y-59260000D01*
X135370000Y-59260000D02*
X138870000Y-59260000D01*
X138870000Y-59260000D02*
X138870000Y-58510000D01*
X138870000Y-58510000D02*
X135370000Y-58510000D01*
X132070000Y-58510000D02*
X132070000Y-59260000D01*
X132070000Y-59260000D02*
X133870000Y-59260000D01*
X133870000Y-59260000D02*
X133870000Y-58510000D01*
X133870000Y-58510000D02*
X132070000Y-58510000D01*
X140370000Y-58510000D02*
X140370000Y-59260000D01*
X140370000Y-59260000D02*
X142170000Y-59260000D01*
X142170000Y-59260000D02*
X142170000Y-58510000D01*
X142170000Y-58510000D02*
X140370000Y-58510000D01*
X132070000Y-60760000D02*
X132820000Y-60760000D01*
X132820000Y-60760000D02*
X132820000Y-63710000D01*
X132820000Y-63710000D02*
X137120000Y-63710000D01*
X142170000Y-60760000D02*
X141420000Y-60760000D01*
X141420000Y-60760000D02*
X141420000Y-63710000D01*
X141420000Y-63710000D02*
X137120000Y-63710000D01*
X134270000Y-58210000D02*
X131770000Y-58210000D01*
X131770000Y-58210000D02*
X131770000Y-60710000D01*
X131770000Y-65830000D02*
X131770000Y-68330000D01*
X134270000Y-65830000D02*
X131770000Y-65830000D01*
X141420000Y-71330000D02*
X137120000Y-71330000D01*
X141420000Y-68380000D02*
X141420000Y-71330000D01*
X142170000Y-68380000D02*
X141420000Y-68380000D01*
X132820000Y-71330000D02*
X137120000Y-71330000D01*
X132820000Y-68380000D02*
X132820000Y-71330000D01*
X132070000Y-68380000D02*
X132820000Y-68380000D01*
X142170000Y-66130000D02*
X140370000Y-66130000D01*
X142170000Y-66880000D02*
X142170000Y-66130000D01*
X140370000Y-66880000D02*
X142170000Y-66880000D01*
X140370000Y-66130000D02*
X140370000Y-66880000D01*
X133870000Y-66130000D02*
X132070000Y-66130000D01*
X133870000Y-66880000D02*
X133870000Y-66130000D01*
X132070000Y-66880000D02*
X133870000Y-66880000D01*
X132070000Y-66130000D02*
X132070000Y-66880000D01*
X138870000Y-66130000D02*
X135370000Y-66130000D01*
X138870000Y-66880000D02*
X138870000Y-66130000D01*
X135370000Y-66880000D02*
X138870000Y-66880000D01*
X135370000Y-66130000D02*
X135370000Y-66880000D01*
X142170000Y-66130000D02*
X132070000Y-66130000D01*
X142170000Y-72080000D02*
X142170000Y-66130000D01*
X132070000Y-72080000D02*
X142170000Y-72080000D01*
X132070000Y-66130000D02*
X132070000Y-72080000D01*
X132070000Y-73750000D02*
X132070000Y-79700000D01*
X132070000Y-79700000D02*
X142170000Y-79700000D01*
X142170000Y-79700000D02*
X142170000Y-73750000D01*
X142170000Y-73750000D02*
X132070000Y-73750000D01*
X135370000Y-73750000D02*
X135370000Y-74500000D01*
X135370000Y-74500000D02*
X138870000Y-74500000D01*
X138870000Y-74500000D02*
X138870000Y-73750000D01*
X138870000Y-73750000D02*
X135370000Y-73750000D01*
X132070000Y-73750000D02*
X132070000Y-74500000D01*
X132070000Y-74500000D02*
X133870000Y-74500000D01*
X133870000Y-74500000D02*
X133870000Y-73750000D01*
X133870000Y-73750000D02*
X132070000Y-73750000D01*
X140370000Y-73750000D02*
X140370000Y-74500000D01*
X140370000Y-74500000D02*
X142170000Y-74500000D01*
X142170000Y-74500000D02*
X142170000Y-73750000D01*
X142170000Y-73750000D02*
X140370000Y-73750000D01*
X132070000Y-76000000D02*
X132820000Y-76000000D01*
X132820000Y-76000000D02*
X132820000Y-78950000D01*
X132820000Y-78950000D02*
X137120000Y-78950000D01*
X142170000Y-76000000D02*
X141420000Y-76000000D01*
X141420000Y-76000000D02*
X141420000Y-78950000D01*
X141420000Y-78950000D02*
X137120000Y-78950000D01*
X134270000Y-73450000D02*
X131770000Y-73450000D01*
X131770000Y-73450000D02*
X131770000Y-75950000D01*
X131770000Y-81070000D02*
X131770000Y-83570000D01*
X134270000Y-81070000D02*
X131770000Y-81070000D01*
X141420000Y-86570000D02*
X137120000Y-86570000D01*
X141420000Y-83620000D02*
X141420000Y-86570000D01*
X142170000Y-83620000D02*
X141420000Y-83620000D01*
X132820000Y-86570000D02*
X137120000Y-86570000D01*
X132820000Y-83620000D02*
X132820000Y-86570000D01*
X132070000Y-83620000D02*
X132820000Y-83620000D01*
X142170000Y-81370000D02*
X140370000Y-81370000D01*
X142170000Y-82120000D02*
X142170000Y-81370000D01*
X140370000Y-82120000D02*
X142170000Y-82120000D01*
X140370000Y-81370000D02*
X140370000Y-82120000D01*
X133870000Y-81370000D02*
X132070000Y-81370000D01*
X133870000Y-82120000D02*
X133870000Y-81370000D01*
X132070000Y-82120000D02*
X133870000Y-82120000D01*
X132070000Y-81370000D02*
X132070000Y-82120000D01*
X138870000Y-81370000D02*
X135370000Y-81370000D01*
X138870000Y-82120000D02*
X138870000Y-81370000D01*
X135370000Y-82120000D02*
X138870000Y-82120000D01*
X135370000Y-81370000D02*
X135370000Y-82120000D01*
X142170000Y-81370000D02*
X132070000Y-81370000D01*
X142170000Y-87320000D02*
X142170000Y-81370000D01*
X132070000Y-87320000D02*
X142170000Y-87320000D01*
X132070000Y-81370000D02*
X132070000Y-87320000D01*
X132070000Y-88990000D02*
X132070000Y-94940000D01*
X132070000Y-94940000D02*
X142170000Y-94940000D01*
X142170000Y-94940000D02*
X142170000Y-88990000D01*
X142170000Y-88990000D02*
X132070000Y-88990000D01*
X135370000Y-88990000D02*
X135370000Y-89740000D01*
X135370000Y-89740000D02*
X138870000Y-89740000D01*
X138870000Y-89740000D02*
X138870000Y-88990000D01*
X138870000Y-88990000D02*
X135370000Y-88990000D01*
X132070000Y-88990000D02*
X132070000Y-89740000D01*
X132070000Y-89740000D02*
X133870000Y-89740000D01*
X133870000Y-89740000D02*
X133870000Y-88990000D01*
X133870000Y-88990000D02*
X132070000Y-88990000D01*
X140370000Y-88990000D02*
X140370000Y-89740000D01*
X140370000Y-89740000D02*
X142170000Y-89740000D01*
X142170000Y-89740000D02*
X142170000Y-88990000D01*
X142170000Y-88990000D02*
X140370000Y-88990000D01*
X132070000Y-91240000D02*
X132820000Y-91240000D01*
X132820000Y-91240000D02*
X132820000Y-94190000D01*
X132820000Y-94190000D02*
X137120000Y-94190000D01*
X142170000Y-91240000D02*
X141420000Y-91240000D01*
X141420000Y-91240000D02*
X141420000Y-94190000D01*
X141420000Y-94190000D02*
X137120000Y-94190000D01*
X134270000Y-88690000D02*
X131770000Y-88690000D01*
X131770000Y-88690000D02*
X131770000Y-91190000D01*
X98750000Y-60750000D02*
X98750000Y-63250000D01*
X101250000Y-60750000D02*
X98750000Y-60750000D01*
X108400000Y-66250000D02*
X104100000Y-66250000D01*
X108400000Y-63300000D02*
X108400000Y-66250000D01*
X109150000Y-63300000D02*
X108400000Y-63300000D01*
X99800000Y-66250000D02*
X104100000Y-66250000D01*
X99800000Y-63300000D02*
X99800000Y-66250000D01*
X99050000Y-63300000D02*
X99800000Y-63300000D01*
X109150000Y-61050000D02*
X107350000Y-61050000D01*
X109150000Y-61800000D02*
X109150000Y-61050000D01*
X107350000Y-61800000D02*
X109150000Y-61800000D01*
X107350000Y-61050000D02*
X107350000Y-61800000D01*
X100850000Y-61050000D02*
X99050000Y-61050000D01*
X100850000Y-61800000D02*
X100850000Y-61050000D01*
X99050000Y-61800000D02*
X100850000Y-61800000D01*
X99050000Y-61050000D02*
X99050000Y-61800000D01*
X105850000Y-61050000D02*
X102350000Y-61050000D01*
X105850000Y-61800000D02*
X105850000Y-61050000D01*
X102350000Y-61800000D02*
X105850000Y-61800000D01*
X102350000Y-61050000D02*
X102350000Y-61800000D01*
X109150000Y-61050000D02*
X99050000Y-61050000D01*
X109150000Y-67000000D02*
X109150000Y-61050000D01*
X99050000Y-67000000D02*
X109150000Y-67000000D01*
X99050000Y-61050000D02*
X99050000Y-67000000D01*
X101270000Y-53960000D02*
X101270000Y-55260000D01*
X100670000Y-54610000D02*
X101870000Y-54610000D01*
X108201000Y-54364000D02*
X108201000Y-54856000D01*
X108161000Y-54012000D02*
X108161000Y-55208000D01*
X108121000Y-53796000D02*
X108121000Y-55424000D01*
X108081000Y-53627000D02*
X108081000Y-55593000D01*
X108041000Y-53483000D02*
X108041000Y-55737000D01*
X108001000Y-53356000D02*
X108001000Y-55864000D01*
X107961000Y-53241000D02*
X107961000Y-55979000D01*
X107921000Y-53137000D02*
X107921000Y-56083000D01*
X107881000Y-53040000D02*
X107881000Y-56180000D01*
X107841000Y-52950000D02*
X107841000Y-56270000D01*
X107801000Y-52865000D02*
X107801000Y-56355000D01*
X107761000Y-52784000D02*
X107761000Y-56436000D01*
X107721000Y-52708000D02*
X107721000Y-56512000D01*
X107681000Y-52636000D02*
X107681000Y-56584000D01*
X107641000Y-52567000D02*
X107641000Y-56653000D01*
X107601000Y-52501000D02*
X107601000Y-56719000D01*
X107561000Y-52437000D02*
X107561000Y-56783000D01*
X107521000Y-52376000D02*
X107521000Y-56844000D01*
X107481000Y-52317000D02*
X107481000Y-56903000D01*
X107441000Y-52261000D02*
X107441000Y-56959000D01*
X107401000Y-52206000D02*
X107401000Y-57014000D01*
X107361000Y-52153000D02*
X107361000Y-57067000D01*
X107321000Y-52102000D02*
X107321000Y-57118000D01*
X107281000Y-52053000D02*
X107281000Y-57167000D01*
X107241000Y-52005000D02*
X107241000Y-57215000D01*
X107201000Y-51958000D02*
X107201000Y-57262000D01*
X107161000Y-51913000D02*
X107161000Y-57307000D01*
X107121000Y-51870000D02*
X107121000Y-57350000D01*
X107081000Y-51827000D02*
X107081000Y-57393000D01*
X107041000Y-51786000D02*
X107041000Y-57434000D01*
X107001000Y-51745000D02*
X107001000Y-57475000D01*
X106961000Y-51706000D02*
X106961000Y-57514000D01*
X106921000Y-51668000D02*
X106921000Y-57552000D01*
X106881000Y-51631000D02*
X106881000Y-57589000D01*
X106841000Y-51595000D02*
X106841000Y-57625000D01*
X106801000Y-51560000D02*
X106801000Y-57660000D01*
X106761000Y-51526000D02*
X106761000Y-57694000D01*
X106721000Y-51492000D02*
X106721000Y-57728000D01*
X106681000Y-51460000D02*
X106681000Y-57760000D01*
X106641000Y-51428000D02*
X106641000Y-57792000D01*
X106601000Y-51397000D02*
X106601000Y-57823000D01*
X106561000Y-51367000D02*
X106561000Y-57853000D01*
X106521000Y-51338000D02*
X106521000Y-57882000D01*
X106481000Y-51309000D02*
X106481000Y-57911000D01*
X106441000Y-51281000D02*
X106441000Y-57939000D01*
X106401000Y-51254000D02*
X106401000Y-57966000D01*
X106361000Y-51227000D02*
X106361000Y-57993000D01*
X106321000Y-55590000D02*
X106321000Y-58018000D01*
X106321000Y-51202000D02*
X106321000Y-53630000D01*
X106281000Y-55590000D02*
X106281000Y-58044000D01*
X106281000Y-51176000D02*
X106281000Y-53630000D01*
X106241000Y-55590000D02*
X106241000Y-58068000D01*
X106241000Y-51152000D02*
X106241000Y-53630000D01*
X106201000Y-55590000D02*
X106201000Y-58092000D01*
X106201000Y-51128000D02*
X106201000Y-53630000D01*
X106161000Y-55590000D02*
X106161000Y-58115000D01*
X106161000Y-51105000D02*
X106161000Y-53630000D01*
X106121000Y-55590000D02*
X106121000Y-58138000D01*
X106121000Y-51082000D02*
X106121000Y-53630000D01*
X106081000Y-55590000D02*
X106081000Y-58160000D01*
X106081000Y-51060000D02*
X106081000Y-53630000D01*
X106041000Y-55590000D02*
X106041000Y-58182000D01*
X106041000Y-51038000D02*
X106041000Y-53630000D01*
X106001000Y-55590000D02*
X106001000Y-58203000D01*
X106001000Y-51017000D02*
X106001000Y-53630000D01*
X105961000Y-55590000D02*
X105961000Y-58223000D01*
X105961000Y-50997000D02*
X105961000Y-53630000D01*
X105921000Y-55590000D02*
X105921000Y-58243000D01*
X105921000Y-50977000D02*
X105921000Y-53630000D01*
X105881000Y-55590000D02*
X105881000Y-58262000D01*
X105881000Y-50958000D02*
X105881000Y-53630000D01*
X105841000Y-55590000D02*
X105841000Y-58281000D01*
X105841000Y-50939000D02*
X105841000Y-53630000D01*
X105801000Y-55590000D02*
X105801000Y-58300000D01*
X105801000Y-50920000D02*
X105801000Y-53630000D01*
X105761000Y-55590000D02*
X105761000Y-58317000D01*
X105761000Y-50903000D02*
X105761000Y-53630000D01*
X105721000Y-55590000D02*
X105721000Y-58335000D01*
X105721000Y-50885000D02*
X105721000Y-53630000D01*
X105681000Y-55590000D02*
X105681000Y-58351000D01*
X105681000Y-50869000D02*
X105681000Y-53630000D01*
X105641000Y-55590000D02*
X105641000Y-58368000D01*
X105641000Y-50852000D02*
X105641000Y-53630000D01*
X105601000Y-55590000D02*
X105601000Y-58383000D01*
X105601000Y-50837000D02*
X105601000Y-53630000D01*
X105561000Y-55590000D02*
X105561000Y-58399000D01*
X105561000Y-50821000D02*
X105561000Y-53630000D01*
X105521000Y-55590000D02*
X105521000Y-58413000D01*
X105521000Y-50807000D02*
X105521000Y-53630000D01*
X105481000Y-55590000D02*
X105481000Y-58428000D01*
X105481000Y-50792000D02*
X105481000Y-53630000D01*
X105441000Y-55590000D02*
X105441000Y-58442000D01*
X105441000Y-50778000D02*
X105441000Y-53630000D01*
X105401000Y-55590000D02*
X105401000Y-58455000D01*
X105401000Y-50765000D02*
X105401000Y-53630000D01*
X105361000Y-55590000D02*
X105361000Y-58468000D01*
X105361000Y-50752000D02*
X105361000Y-53630000D01*
X105321000Y-55590000D02*
X105321000Y-58480000D01*
X105321000Y-50740000D02*
X105321000Y-53630000D01*
X105281000Y-55590000D02*
X105281000Y-58493000D01*
X105281000Y-50727000D02*
X105281000Y-53630000D01*
X105241000Y-55590000D02*
X105241000Y-58504000D01*
X105241000Y-50716000D02*
X105241000Y-53630000D01*
X105201000Y-55590000D02*
X105201000Y-58515000D01*
X105201000Y-50705000D02*
X105201000Y-53630000D01*
X105161000Y-55590000D02*
X105161000Y-58526000D01*
X105161000Y-50694000D02*
X105161000Y-53630000D01*
X105121000Y-55590000D02*
X105121000Y-58536000D01*
X105121000Y-50684000D02*
X105121000Y-53630000D01*
X105081000Y-55590000D02*
X105081000Y-58546000D01*
X105081000Y-50674000D02*
X105081000Y-53630000D01*
X105041000Y-55590000D02*
X105041000Y-58556000D01*
X105041000Y-50664000D02*
X105041000Y-53630000D01*
X105001000Y-55590000D02*
X105001000Y-58565000D01*
X105001000Y-50655000D02*
X105001000Y-53630000D01*
X104961000Y-55590000D02*
X104961000Y-58573000D01*
X104961000Y-50647000D02*
X104961000Y-53630000D01*
X104921000Y-55590000D02*
X104921000Y-58581000D01*
X104921000Y-50639000D02*
X104921000Y-53630000D01*
X104881000Y-55590000D02*
X104881000Y-58589000D01*
X104881000Y-50631000D02*
X104881000Y-53630000D01*
X104841000Y-55590000D02*
X104841000Y-58597000D01*
X104841000Y-50623000D02*
X104841000Y-53630000D01*
X104800000Y-55590000D02*
X104800000Y-58604000D01*
X104800000Y-50616000D02*
X104800000Y-53630000D01*
X104760000Y-55590000D02*
X104760000Y-58610000D01*
X104760000Y-50610000D02*
X104760000Y-53630000D01*
X104720000Y-55590000D02*
X104720000Y-58616000D01*
X104720000Y-50604000D02*
X104720000Y-53630000D01*
X104680000Y-55590000D02*
X104680000Y-58622000D01*
X104680000Y-50598000D02*
X104680000Y-53630000D01*
X104640000Y-55590000D02*
X104640000Y-58627000D01*
X104640000Y-50593000D02*
X104640000Y-53630000D01*
X104600000Y-55590000D02*
X104600000Y-58632000D01*
X104600000Y-50588000D02*
X104600000Y-53630000D01*
X104560000Y-55590000D02*
X104560000Y-58637000D01*
X104560000Y-50583000D02*
X104560000Y-53630000D01*
X104520000Y-55590000D02*
X104520000Y-58641000D01*
X104520000Y-50579000D02*
X104520000Y-53630000D01*
X104480000Y-55590000D02*
X104480000Y-58645000D01*
X104480000Y-50575000D02*
X104480000Y-53630000D01*
X104440000Y-55590000D02*
X104440000Y-58648000D01*
X104440000Y-50572000D02*
X104440000Y-53630000D01*
X104400000Y-55590000D02*
X104400000Y-58651000D01*
X104400000Y-50569000D02*
X104400000Y-53630000D01*
X104360000Y-50567000D02*
X104360000Y-58653000D01*
X104320000Y-50564000D02*
X104320000Y-58656000D01*
X104280000Y-50563000D02*
X104280000Y-58657000D01*
X104240000Y-50561000D02*
X104240000Y-58659000D01*
X104200000Y-50560000D02*
X104200000Y-58660000D01*
X104160000Y-50560000D02*
X104160000Y-58660000D01*
X104120000Y-50560000D02*
X104120000Y-58660000D01*
X108210000Y-54610000D02*
G75*
G03X108210000Y-54610000I-4090000J0D01*
G01*
D12*
G36*
X118849397Y-72256155D02*
X118890260Y-72207867D01*
X118952476Y-72173248D01*
X119017465Y-72168406D01*
X119080530Y-72192258D01*
X119136977Y-72243722D01*
X119154799Y-72268843D01*
X119199209Y-72338870D01*
X119192493Y-72246013D01*
X119190047Y-72191896D01*
X119194892Y-72157269D01*
X119210571Y-72130097D01*
X119234042Y-72104891D01*
X119289905Y-72067407D01*
X119351877Y-72054334D01*
X119413044Y-72063226D01*
X119466491Y-72091639D01*
X119505305Y-72137128D01*
X119522570Y-72197249D01*
X119522875Y-72207005D01*
X119511316Y-72277716D01*
X119480605Y-72341502D01*
X119451617Y-72373976D01*
X119421826Y-72406755D01*
X119409920Y-72425169D01*
X119404105Y-72440355D01*
X119412919Y-72442461D01*
X119441308Y-72430666D01*
X119473759Y-72414568D01*
X119546767Y-72384113D01*
X119606798Y-72375876D01*
X119662837Y-72389147D01*
X119681942Y-72398102D01*
X119728395Y-72432152D01*
X119753355Y-72479011D01*
X119760994Y-72546640D01*
X119761000Y-72548928D01*
X119754236Y-72603093D01*
X119728886Y-72645824D01*
X119714596Y-72661097D01*
X119655966Y-72698391D01*
X119583483Y-72707702D01*
X119498527Y-72688906D01*
X119481157Y-72682176D01*
X119419687Y-72656851D01*
X119470307Y-72709957D01*
X119523464Y-72781448D01*
X119546400Y-72851458D01*
X119538933Y-72917963D01*
X119500882Y-72978941D01*
X119494958Y-72985088D01*
X119456038Y-73013494D01*
X119407284Y-73024342D01*
X119385214Y-73025000D01*
X119308950Y-73013348D01*
X119254317Y-72978521D01*
X119221451Y-72920710D01*
X119210491Y-72840108D01*
X119214056Y-72784386D01*
X119224224Y-72699563D01*
X119172273Y-72781652D01*
X119125942Y-72844001D01*
X119079083Y-72880532D01*
X119023813Y-72896310D01*
X118991200Y-72898000D01*
X118929425Y-72883723D01*
X118879923Y-72845452D01*
X118847413Y-72790034D01*
X118836611Y-72724314D01*
X118842615Y-72682397D01*
X118866464Y-72629790D01*
X118908687Y-72592368D01*
X118974365Y-72566506D01*
X119019184Y-72556477D01*
X119118062Y-72537992D01*
X119023449Y-72517742D01*
X118944904Y-72496717D01*
X118891846Y-72470861D01*
X118858022Y-72436049D01*
X118839802Y-72396583D01*
X118829548Y-72322252D01*
X118849397Y-72256155D01*
X118849397Y-72256155D01*
G37*
X118849397Y-72256155D02*
X118890260Y-72207867D01*
X118952476Y-72173248D01*
X119017465Y-72168406D01*
X119080530Y-72192258D01*
X119136977Y-72243722D01*
X119154799Y-72268843D01*
X119199209Y-72338870D01*
X119192493Y-72246013D01*
X119190047Y-72191896D01*
X119194892Y-72157269D01*
X119210571Y-72130097D01*
X119234042Y-72104891D01*
X119289905Y-72067407D01*
X119351877Y-72054334D01*
X119413044Y-72063226D01*
X119466491Y-72091639D01*
X119505305Y-72137128D01*
X119522570Y-72197249D01*
X119522875Y-72207005D01*
X119511316Y-72277716D01*
X119480605Y-72341502D01*
X119451617Y-72373976D01*
X119421826Y-72406755D01*
X119409920Y-72425169D01*
X119404105Y-72440355D01*
X119412919Y-72442461D01*
X119441308Y-72430666D01*
X119473759Y-72414568D01*
X119546767Y-72384113D01*
X119606798Y-72375876D01*
X119662837Y-72389147D01*
X119681942Y-72398102D01*
X119728395Y-72432152D01*
X119753355Y-72479011D01*
X119760994Y-72546640D01*
X119761000Y-72548928D01*
X119754236Y-72603093D01*
X119728886Y-72645824D01*
X119714596Y-72661097D01*
X119655966Y-72698391D01*
X119583483Y-72707702D01*
X119498527Y-72688906D01*
X119481157Y-72682176D01*
X119419687Y-72656851D01*
X119470307Y-72709957D01*
X119523464Y-72781448D01*
X119546400Y-72851458D01*
X119538933Y-72917963D01*
X119500882Y-72978941D01*
X119494958Y-72985088D01*
X119456038Y-73013494D01*
X119407284Y-73024342D01*
X119385214Y-73025000D01*
X119308950Y-73013348D01*
X119254317Y-72978521D01*
X119221451Y-72920710D01*
X119210491Y-72840108D01*
X119214056Y-72784386D01*
X119224224Y-72699563D01*
X119172273Y-72781652D01*
X119125942Y-72844001D01*
X119079083Y-72880532D01*
X119023813Y-72896310D01*
X118991200Y-72898000D01*
X118929425Y-72883723D01*
X118879923Y-72845452D01*
X118847413Y-72790034D01*
X118836611Y-72724314D01*
X118842615Y-72682397D01*
X118866464Y-72629790D01*
X118908687Y-72592368D01*
X118974365Y-72566506D01*
X119019184Y-72556477D01*
X119118062Y-72537992D01*
X119023449Y-72517742D01*
X118944904Y-72496717D01*
X118891846Y-72470861D01*
X118858022Y-72436049D01*
X118839802Y-72396583D01*
X118829548Y-72322252D01*
X118849397Y-72256155D01*
G36*
X119325130Y-66879103D02*
X119418974Y-66847102D01*
X119485722Y-66823386D01*
X119528491Y-66806490D01*
X119550400Y-66794944D01*
X119554566Y-66787280D01*
X119544107Y-66782031D01*
X119535474Y-66780069D01*
X119501371Y-66771095D01*
X119444627Y-66753737D01*
X119372494Y-66730308D01*
X119292227Y-66703119D01*
X119272843Y-66696390D01*
X119062500Y-66623013D01*
X119062500Y-66506132D01*
X119064016Y-66449801D01*
X119068024Y-66408353D01*
X119073706Y-66389618D01*
X119074672Y-66389250D01*
X119095477Y-66388006D01*
X119142079Y-66384588D01*
X119208637Y-66379466D01*
X119289310Y-66373112D01*
X119378254Y-66365997D01*
X119469629Y-66358592D01*
X119557592Y-66351369D01*
X119636301Y-66344798D01*
X119699916Y-66339351D01*
X119742593Y-66335498D01*
X119749093Y-66334861D01*
X119824500Y-66327246D01*
X119824500Y-66496025D01*
X119669718Y-66506322D01*
X119539716Y-66515056D01*
X119438400Y-66522130D01*
X119362768Y-66527863D01*
X119309818Y-66532575D01*
X119276548Y-66536582D01*
X119259955Y-66540204D01*
X119257036Y-66543760D01*
X119264791Y-66547567D01*
X119268875Y-66548842D01*
X119296903Y-66557432D01*
X119349233Y-66573744D01*
X119419898Y-66595911D01*
X119502933Y-66622061D01*
X119566531Y-66642148D01*
X119824500Y-66723726D01*
X119824500Y-66892386D01*
X119550656Y-66975805D01*
X119461879Y-67002797D01*
X119383318Y-67026586D01*
X119320136Y-67045617D01*
X119277496Y-67058334D01*
X119260937Y-67063098D01*
X119265160Y-67066545D01*
X119296888Y-67071298D01*
X119351920Y-67076978D01*
X119426056Y-67083206D01*
X119515096Y-67089604D01*
X119614840Y-67095794D01*
X119637968Y-67097099D01*
X119824500Y-67107432D01*
X119824500Y-67262375D01*
X119757031Y-67261926D01*
X119719167Y-67260506D01*
X119656344Y-67256852D01*
X119575240Y-67251407D01*
X119482532Y-67244615D01*
X119403812Y-67238454D01*
X119310241Y-67231017D01*
X119226364Y-67224541D01*
X119157832Y-67219448D01*
X119110296Y-67216159D01*
X119090281Y-67215091D01*
X119076153Y-67210956D01*
X119067756Y-67194787D01*
X119063679Y-67160295D01*
X119062511Y-67101193D01*
X119062499Y-67091293D01*
X119062499Y-66967835D01*
X119325130Y-66879103D01*
X119325130Y-66879103D01*
G37*
X119325130Y-66879103D02*
X119418974Y-66847102D01*
X119485722Y-66823386D01*
X119528491Y-66806490D01*
X119550400Y-66794944D01*
X119554566Y-66787280D01*
X119544107Y-66782031D01*
X119535474Y-66780069D01*
X119501371Y-66771095D01*
X119444627Y-66753737D01*
X119372494Y-66730308D01*
X119292227Y-66703119D01*
X119272843Y-66696390D01*
X119062500Y-66623013D01*
X119062500Y-66506132D01*
X119064016Y-66449801D01*
X119068024Y-66408353D01*
X119073706Y-66389618D01*
X119074672Y-66389250D01*
X119095477Y-66388006D01*
X119142079Y-66384588D01*
X119208637Y-66379466D01*
X119289310Y-66373112D01*
X119378254Y-66365997D01*
X119469629Y-66358592D01*
X119557592Y-66351369D01*
X119636301Y-66344798D01*
X119699916Y-66339351D01*
X119742593Y-66335498D01*
X119749093Y-66334861D01*
X119824500Y-66327246D01*
X119824500Y-66496025D01*
X119669718Y-66506322D01*
X119539716Y-66515056D01*
X119438400Y-66522130D01*
X119362768Y-66527863D01*
X119309818Y-66532575D01*
X119276548Y-66536582D01*
X119259955Y-66540204D01*
X119257036Y-66543760D01*
X119264791Y-66547567D01*
X119268875Y-66548842D01*
X119296903Y-66557432D01*
X119349233Y-66573744D01*
X119419898Y-66595911D01*
X119502933Y-66622061D01*
X119566531Y-66642148D01*
X119824500Y-66723726D01*
X119824500Y-66892386D01*
X119550656Y-66975805D01*
X119461879Y-67002797D01*
X119383318Y-67026586D01*
X119320136Y-67045617D01*
X119277496Y-67058334D01*
X119260937Y-67063098D01*
X119265160Y-67066545D01*
X119296888Y-67071298D01*
X119351920Y-67076978D01*
X119426056Y-67083206D01*
X119515096Y-67089604D01*
X119614840Y-67095794D01*
X119637968Y-67097099D01*
X119824500Y-67107432D01*
X119824500Y-67262375D01*
X119757031Y-67261926D01*
X119719167Y-67260506D01*
X119656344Y-67256852D01*
X119575240Y-67251407D01*
X119482532Y-67244615D01*
X119403812Y-67238454D01*
X119310241Y-67231017D01*
X119226364Y-67224541D01*
X119157832Y-67219448D01*
X119110296Y-67216159D01*
X119090281Y-67215091D01*
X119076153Y-67210956D01*
X119067756Y-67194787D01*
X119063679Y-67160295D01*
X119062511Y-67101193D01*
X119062499Y-67091293D01*
X119062499Y-66967835D01*
X119325130Y-66879103D01*
G36*
X119205375Y-67294125D02*
X119205375Y-67532250D01*
X119824500Y-67532250D01*
X119824500Y-67706875D01*
X119205375Y-67706875D01*
X119205375Y-67945000D01*
X119062500Y-67945000D01*
X119062500Y-67294125D01*
X119205375Y-67294125D01*
X119205375Y-67294125D01*
G37*
X119205375Y-67294125D02*
X119205375Y-67532250D01*
X119824500Y-67532250D01*
X119824500Y-67706875D01*
X119205375Y-67706875D01*
X119205375Y-67945000D01*
X119062500Y-67945000D01*
X119062500Y-67294125D01*
X119205375Y-67294125D01*
G36*
X119995107Y-78106507D02*
X120005931Y-78000913D01*
X120027416Y-77904198D01*
X120062111Y-77805339D01*
X120112562Y-77693314D01*
X120120820Y-77676375D01*
X120158215Y-77604223D01*
X120194687Y-77545110D01*
X120237050Y-77489824D01*
X120292122Y-77429149D01*
X120339084Y-77381335D01*
X120408369Y-77314107D01*
X120466124Y-77264116D01*
X120521555Y-77224558D01*
X120583866Y-77188623D01*
X120634125Y-77163148D01*
X120693224Y-77134279D01*
X120744898Y-77110116D01*
X120792599Y-77090214D01*
X120839779Y-77074131D01*
X120889890Y-77061425D01*
X120946385Y-77051654D01*
X121012714Y-77044374D01*
X121092330Y-77039144D01*
X121188686Y-77035520D01*
X121305232Y-77033060D01*
X121445422Y-77031322D01*
X121612707Y-77029863D01*
X121677906Y-77029340D01*
X122380375Y-77023691D01*
X122380375Y-77832885D01*
X121741406Y-77837974D01*
X121582259Y-77839273D01*
X121451646Y-77840521D01*
X121346354Y-77841908D01*
X121263168Y-77843629D01*
X121198872Y-77845877D01*
X121150253Y-77848843D01*
X121114096Y-77852720D01*
X121087188Y-77857702D01*
X121066312Y-77863982D01*
X121048255Y-77871751D01*
X121031000Y-77880573D01*
X120933022Y-77946550D01*
X120863425Y-78026733D01*
X120822144Y-78121221D01*
X120809098Y-78227504D01*
X120821404Y-78330346D01*
X120859328Y-78418528D01*
X120925660Y-78498060D01*
X120941250Y-78512288D01*
X121032847Y-78573925D01*
X121131398Y-78605613D01*
X121233204Y-78606972D01*
X121334567Y-78577619D01*
X121374457Y-78557020D01*
X121452989Y-78498945D01*
X121509865Y-78427510D01*
X121546977Y-78338689D01*
X121566218Y-78228455D01*
X121570053Y-78140719D01*
X121570750Y-77993875D01*
X122380375Y-77993875D01*
X122379500Y-78204219D01*
X122377034Y-78318938D01*
X122370149Y-78410825D01*
X122358003Y-78488598D01*
X122347911Y-78531848D01*
X122288608Y-78707753D01*
X122206540Y-78864903D01*
X122098493Y-79008662D01*
X122004513Y-79105296D01*
X121866752Y-79219425D01*
X121724817Y-79305709D01*
X121573346Y-79366329D01*
X121406979Y-79403471D01*
X121234524Y-79418841D01*
X121089902Y-79419536D01*
X120966031Y-79408699D01*
X120853445Y-79384549D01*
X120742678Y-79345308D01*
X120671491Y-79312971D01*
X120498226Y-79212524D01*
X120348881Y-79091273D01*
X120223581Y-78949339D01*
X120122450Y-78786846D01*
X120111529Y-78765125D01*
X120061927Y-78655348D01*
X120027604Y-78555551D01*
X120006169Y-78455027D01*
X119995228Y-78343068D01*
X119992397Y-78232000D01*
X119995107Y-78106507D01*
X119995107Y-78106507D01*
G37*
X119995107Y-78106507D02*
X120005931Y-78000913D01*
X120027416Y-77904198D01*
X120062111Y-77805339D01*
X120112562Y-77693314D01*
X120120820Y-77676375D01*
X120158215Y-77604223D01*
X120194687Y-77545110D01*
X120237050Y-77489824D01*
X120292122Y-77429149D01*
X120339084Y-77381335D01*
X120408369Y-77314107D01*
X120466124Y-77264116D01*
X120521555Y-77224558D01*
X120583866Y-77188623D01*
X120634125Y-77163148D01*
X120693224Y-77134279D01*
X120744898Y-77110116D01*
X120792599Y-77090214D01*
X120839779Y-77074131D01*
X120889890Y-77061425D01*
X120946385Y-77051654D01*
X121012714Y-77044374D01*
X121092330Y-77039144D01*
X121188686Y-77035520D01*
X121305232Y-77033060D01*
X121445422Y-77031322D01*
X121612707Y-77029863D01*
X121677906Y-77029340D01*
X122380375Y-77023691D01*
X122380375Y-77832885D01*
X121741406Y-77837974D01*
X121582259Y-77839273D01*
X121451646Y-77840521D01*
X121346354Y-77841908D01*
X121263168Y-77843629D01*
X121198872Y-77845877D01*
X121150253Y-77848843D01*
X121114096Y-77852720D01*
X121087188Y-77857702D01*
X121066312Y-77863982D01*
X121048255Y-77871751D01*
X121031000Y-77880573D01*
X120933022Y-77946550D01*
X120863425Y-78026733D01*
X120822144Y-78121221D01*
X120809098Y-78227504D01*
X120821404Y-78330346D01*
X120859328Y-78418528D01*
X120925660Y-78498060D01*
X120941250Y-78512288D01*
X121032847Y-78573925D01*
X121131398Y-78605613D01*
X121233204Y-78606972D01*
X121334567Y-78577619D01*
X121374457Y-78557020D01*
X121452989Y-78498945D01*
X121509865Y-78427510D01*
X121546977Y-78338689D01*
X121566218Y-78228455D01*
X121570053Y-78140719D01*
X121570750Y-77993875D01*
X122380375Y-77993875D01*
X122379500Y-78204219D01*
X122377034Y-78318938D01*
X122370149Y-78410825D01*
X122358003Y-78488598D01*
X122347911Y-78531848D01*
X122288608Y-78707753D01*
X122206540Y-78864903D01*
X122098493Y-79008662D01*
X122004513Y-79105296D01*
X121866752Y-79219425D01*
X121724817Y-79305709D01*
X121573346Y-79366329D01*
X121406979Y-79403471D01*
X121234524Y-79418841D01*
X121089902Y-79419536D01*
X120966031Y-79408699D01*
X120853445Y-79384549D01*
X120742678Y-79345308D01*
X120671491Y-79312971D01*
X120498226Y-79212524D01*
X120348881Y-79091273D01*
X120223581Y-78949339D01*
X120122450Y-78786846D01*
X120111529Y-78765125D01*
X120061927Y-78655348D01*
X120027604Y-78555551D01*
X120006169Y-78455027D01*
X119995228Y-78343068D01*
X119992397Y-78232000D01*
X119995107Y-78106507D01*
G36*
X120110250Y-79009875D02*
X120110249Y-79157807D01*
X120115587Y-79279234D01*
X120132673Y-79376097D01*
X120163114Y-79453921D01*
X120208518Y-79518227D01*
X120218155Y-79528537D01*
X120241516Y-79553041D01*
X120262165Y-79574095D01*
X120282577Y-79591970D01*
X120305229Y-79606938D01*
X120332595Y-79619270D01*
X120367152Y-79629237D01*
X120411376Y-79637112D01*
X120467741Y-79643164D01*
X120538723Y-79647667D01*
X120626799Y-79650890D01*
X120734444Y-79653107D01*
X120864133Y-79654587D01*
X121018342Y-79655602D01*
X121199547Y-79656424D01*
X121392156Y-79657243D01*
X122380375Y-79661673D01*
X122380375Y-80470375D01*
X121380250Y-80470375D01*
X121380250Y-80994250D01*
X120554750Y-80994250D01*
X120554750Y-80470375D01*
X120450727Y-80470375D01*
X120300829Y-80457734D01*
X120145275Y-80419102D01*
X119979966Y-80353413D01*
X119955062Y-80341637D01*
X119873389Y-80300255D01*
X119809258Y-80261568D01*
X119751474Y-80217634D01*
X119688840Y-80160511D01*
X119660285Y-80132552D01*
X119553851Y-80016477D01*
X119470364Y-79899567D01*
X119402617Y-79771057D01*
X119375746Y-79707584D01*
X119344476Y-79618533D01*
X119322595Y-79528850D01*
X119308852Y-79430307D01*
X119301998Y-79314676D01*
X119300625Y-79213335D01*
X119300625Y-79009875D01*
X120110250Y-79009875D01*
X120110250Y-79009875D01*
G37*
X120110250Y-79009875D02*
X120110249Y-79157807D01*
X120115587Y-79279234D01*
X120132673Y-79376097D01*
X120163114Y-79453921D01*
X120208518Y-79518227D01*
X120218155Y-79528537D01*
X120241516Y-79553041D01*
X120262165Y-79574095D01*
X120282577Y-79591970D01*
X120305229Y-79606938D01*
X120332595Y-79619270D01*
X120367152Y-79629237D01*
X120411376Y-79637112D01*
X120467741Y-79643164D01*
X120538723Y-79647667D01*
X120626799Y-79650890D01*
X120734444Y-79653107D01*
X120864133Y-79654587D01*
X121018342Y-79655602D01*
X121199547Y-79656424D01*
X121392156Y-79657243D01*
X122380375Y-79661673D01*
X122380375Y-80470375D01*
X121380250Y-80470375D01*
X121380250Y-80994250D01*
X120554750Y-80994250D01*
X120554750Y-80470375D01*
X120450727Y-80470375D01*
X120300829Y-80457734D01*
X120145275Y-80419102D01*
X119979966Y-80353413D01*
X119955062Y-80341637D01*
X119873389Y-80300255D01*
X119809258Y-80261568D01*
X119751474Y-80217634D01*
X119688840Y-80160511D01*
X119660285Y-80132552D01*
X119553851Y-80016477D01*
X119470364Y-79899567D01*
X119402617Y-79771057D01*
X119375746Y-79707584D01*
X119344476Y-79618533D01*
X119322595Y-79528850D01*
X119308852Y-79430307D01*
X119301998Y-79314676D01*
X119300625Y-79213335D01*
X119300625Y-79009875D01*
X120110250Y-79009875D01*
G36*
X120828328Y-71120000D02*
X120818156Y-71084282D01*
X120806488Y-71039567D01*
X120798914Y-71007252D01*
X120784231Y-70983509D01*
X120746156Y-70938870D01*
X120684958Y-70873612D01*
X120600904Y-70788012D01*
X120494263Y-70682347D01*
X120365302Y-70556893D01*
X120338810Y-70531336D01*
X120239798Y-70435548D01*
X120148504Y-70346486D01*
X120067350Y-70266570D01*
X119998757Y-70198217D01*
X119945146Y-70143844D01*
X119908937Y-70105869D01*
X119892553Y-70086711D01*
X119891857Y-70085015D01*
X119904245Y-70068884D01*
X119934893Y-70034554D01*
X119980009Y-69985934D01*
X120035802Y-69926937D01*
X120098479Y-69861473D01*
X120164251Y-69793453D01*
X120229324Y-69726787D01*
X120289909Y-69665387D01*
X120342212Y-69613164D01*
X120382443Y-69574028D01*
X120406811Y-69551890D01*
X120412116Y-69548375D01*
X120426867Y-69559005D01*
X120460938Y-69588852D01*
X120511027Y-69634857D01*
X120573833Y-69693957D01*
X120646053Y-69763094D01*
X120697367Y-69812827D01*
X120968925Y-70077279D01*
X120994383Y-70039046D01*
X121035277Y-69987705D01*
X121094875Y-69925412D01*
X121165599Y-69859034D01*
X121239874Y-69795434D01*
X121310122Y-69741479D01*
X121356437Y-69710983D01*
X121429601Y-69672090D01*
X121514921Y-69632923D01*
X121594019Y-69601914D01*
X121594562Y-69601726D01*
X121638826Y-69587048D01*
X121678585Y-69575940D01*
X121719487Y-69567791D01*
X121767174Y-69561993D01*
X121827292Y-69557936D01*
X121905486Y-69555012D01*
X122007400Y-69552610D01*
X122058906Y-69551605D01*
X122396250Y-69545217D01*
X122396250Y-70358000D01*
X122168585Y-70358000D01*
X122040907Y-70360249D01*
X121942768Y-70366952D01*
X121875048Y-70378044D01*
X121866244Y-70380475D01*
X121769887Y-70424072D01*
X121692707Y-70488029D01*
X121636104Y-70567324D01*
X121601478Y-70656937D01*
X121590228Y-70751847D01*
X121603753Y-70847035D01*
X121643453Y-70937479D01*
X121693207Y-71001212D01*
X121735842Y-71041844D01*
X121777507Y-71072058D01*
X121823871Y-71093362D01*
X121880600Y-71107266D01*
X121953363Y-71115276D01*
X122047825Y-71118901D01*
X122138281Y-71119652D01*
X122396250Y-71120000D01*
X122396250Y-71945500D01*
X119411750Y-71945500D01*
X119411750Y-71120000D01*
X120828328Y-71120000D01*
X120828328Y-71120000D01*
G37*
X120828328Y-71120000D02*
X120818156Y-71084282D01*
X120806488Y-71039567D01*
X120798914Y-71007252D01*
X120784231Y-70983509D01*
X120746156Y-70938870D01*
X120684958Y-70873612D01*
X120600904Y-70788012D01*
X120494263Y-70682347D01*
X120365302Y-70556893D01*
X120338810Y-70531336D01*
X120239798Y-70435548D01*
X120148504Y-70346486D01*
X120067350Y-70266570D01*
X119998757Y-70198217D01*
X119945146Y-70143844D01*
X119908937Y-70105869D01*
X119892553Y-70086711D01*
X119891857Y-70085015D01*
X119904245Y-70068884D01*
X119934893Y-70034554D01*
X119980009Y-69985934D01*
X120035802Y-69926937D01*
X120098479Y-69861473D01*
X120164251Y-69793453D01*
X120229324Y-69726787D01*
X120289909Y-69665387D01*
X120342212Y-69613164D01*
X120382443Y-69574028D01*
X120406811Y-69551890D01*
X120412116Y-69548375D01*
X120426867Y-69559005D01*
X120460938Y-69588852D01*
X120511027Y-69634857D01*
X120573833Y-69693957D01*
X120646053Y-69763094D01*
X120697367Y-69812827D01*
X120968925Y-70077279D01*
X120994383Y-70039046D01*
X121035277Y-69987705D01*
X121094875Y-69925412D01*
X121165599Y-69859034D01*
X121239874Y-69795434D01*
X121310122Y-69741479D01*
X121356437Y-69710983D01*
X121429601Y-69672090D01*
X121514921Y-69632923D01*
X121594019Y-69601914D01*
X121594562Y-69601726D01*
X121638826Y-69587048D01*
X121678585Y-69575940D01*
X121719487Y-69567791D01*
X121767174Y-69561993D01*
X121827292Y-69557936D01*
X121905486Y-69555012D01*
X122007400Y-69552610D01*
X122058906Y-69551605D01*
X122396250Y-69545217D01*
X122396250Y-70358000D01*
X122168585Y-70358000D01*
X122040907Y-70360249D01*
X121942768Y-70366952D01*
X121875048Y-70378044D01*
X121866244Y-70380475D01*
X121769887Y-70424072D01*
X121692707Y-70488029D01*
X121636104Y-70567324D01*
X121601478Y-70656937D01*
X121590228Y-70751847D01*
X121603753Y-70847035D01*
X121643453Y-70937479D01*
X121693207Y-71001212D01*
X121735842Y-71041844D01*
X121777507Y-71072058D01*
X121823871Y-71093362D01*
X121880600Y-71107266D01*
X121953363Y-71115276D01*
X122047825Y-71118901D01*
X122138281Y-71119652D01*
X122396250Y-71120000D01*
X122396250Y-71945500D01*
X119411750Y-71945500D01*
X119411750Y-71120000D01*
X120828328Y-71120000D01*
G36*
X122396250Y-72167750D02*
X122396250Y-72977375D01*
X119983250Y-72977375D01*
X119983250Y-72167750D01*
X122396250Y-72167750D01*
X122396250Y-72167750D01*
G37*
X122396250Y-72167750D02*
X122396250Y-72977375D01*
X119983250Y-72977375D01*
X119983250Y-72167750D01*
X122396250Y-72167750D01*
G36*
X119983250Y-73152000D02*
X120804818Y-73152000D01*
X120812000Y-73238607D01*
X120835806Y-73340393D01*
X120887368Y-73431466D01*
X120963075Y-73506040D01*
X120990462Y-73524643D01*
X121068148Y-73572688D01*
X122396250Y-73581626D01*
X122396250Y-74408182D01*
X121685843Y-74402240D01*
X121516309Y-74400762D01*
X121375308Y-74399315D01*
X121259622Y-74397738D01*
X121166035Y-74395871D01*
X121091329Y-74393554D01*
X121032288Y-74390628D01*
X120985695Y-74386930D01*
X120948333Y-74382303D01*
X120916984Y-74376585D01*
X120888433Y-74369617D01*
X120859461Y-74361237D01*
X120858936Y-74361079D01*
X120674675Y-74289718D01*
X120507655Y-74193357D01*
X120359958Y-74074273D01*
X120233666Y-73934744D01*
X120130859Y-73777048D01*
X120053620Y-73603464D01*
X120006177Y-73427787D01*
X119994589Y-73356463D01*
X119986346Y-73285177D01*
X119983249Y-73229979D01*
X119983250Y-73152000D01*
X119983250Y-73152000D01*
G37*
X119983250Y-73152000D02*
X120804818Y-73152000D01*
X120812000Y-73238607D01*
X120835806Y-73340393D01*
X120887368Y-73431466D01*
X120963075Y-73506040D01*
X120990462Y-73524643D01*
X121068148Y-73572688D01*
X122396250Y-73581626D01*
X122396250Y-74408182D01*
X121685843Y-74402240D01*
X121516309Y-74400762D01*
X121375308Y-74399315D01*
X121259622Y-74397738D01*
X121166035Y-74395871D01*
X121091329Y-74393554D01*
X121032288Y-74390628D01*
X120985695Y-74386930D01*
X120948333Y-74382303D01*
X120916984Y-74376585D01*
X120888433Y-74369617D01*
X120859461Y-74361237D01*
X120858936Y-74361079D01*
X120674675Y-74289718D01*
X120507655Y-74193357D01*
X120359958Y-74074273D01*
X120233666Y-73934744D01*
X120130859Y-73777048D01*
X120053620Y-73603464D01*
X120006177Y-73427787D01*
X119994589Y-73356463D01*
X119986346Y-73285177D01*
X119983249Y-73229979D01*
X119983250Y-73152000D01*
G36*
X120322346Y-76120625D02*
X120491855Y-76120451D01*
X120653690Y-76119947D01*
X120804734Y-76119147D01*
X120941867Y-76118083D01*
X121061971Y-76116788D01*
X121161926Y-76115292D01*
X121238614Y-76113628D01*
X121288916Y-76111830D01*
X121307043Y-76110469D01*
X121363516Y-76095999D01*
X121427634Y-76069973D01*
X121463470Y-76050938D01*
X121546603Y-75985326D01*
X121604319Y-75906914D01*
X121637857Y-75820152D01*
X121648453Y-75729491D01*
X121637345Y-75639384D01*
X121605771Y-75554280D01*
X121554968Y-75478631D01*
X121486174Y-75416889D01*
X121400625Y-75373505D01*
X121299560Y-75352930D01*
X121269125Y-75351862D01*
X121164524Y-75363385D01*
X121076343Y-75399920D01*
X120998171Y-75464414D01*
X120979692Y-75484958D01*
X120939017Y-75540691D01*
X120911740Y-75600705D01*
X120895722Y-75672750D01*
X120888824Y-75764577D01*
X120888125Y-75816874D01*
X120888125Y-75961875D01*
X120057913Y-75961875D01*
X120067308Y-75743594D01*
X120077769Y-75595320D01*
X120096650Y-75469090D01*
X120126153Y-75355814D01*
X120168482Y-75246402D01*
X120207041Y-75167017D01*
X120308779Y-75004631D01*
X120432713Y-74863651D01*
X120576278Y-74745607D01*
X120736912Y-74652029D01*
X120912051Y-74584448D01*
X121099133Y-74544393D01*
X121269125Y-74533125D01*
X121440697Y-74542969D01*
X121598159Y-74574294D01*
X121752993Y-74629789D01*
X121824750Y-74663305D01*
X121941138Y-74733882D01*
X122057912Y-74827481D01*
X122167327Y-74936433D01*
X122261637Y-75053068D01*
X122329965Y-75163574D01*
X122396188Y-75319643D01*
X122442246Y-75488174D01*
X122466591Y-75660251D01*
X122467676Y-75826955D01*
X122458886Y-75906313D01*
X122413689Y-76096734D01*
X122340534Y-76274042D01*
X122241369Y-76435781D01*
X122118147Y-76579493D01*
X121972816Y-76702723D01*
X121807327Y-76803012D01*
X121713452Y-76845484D01*
X121671511Y-76861956D01*
X121631416Y-76876147D01*
X121590531Y-76888228D01*
X121546221Y-76898367D01*
X121495849Y-76906734D01*
X121436780Y-76913498D01*
X121366377Y-76918830D01*
X121282006Y-76922897D01*
X121181030Y-76925870D01*
X121060814Y-76927918D01*
X120918721Y-76929210D01*
X120752116Y-76929916D01*
X120558363Y-76930205D01*
X120394603Y-76930250D01*
X119411750Y-76930250D01*
X119411750Y-76120625D01*
X120322346Y-76120625D01*
X120322346Y-76120625D01*
G37*
X120322346Y-76120625D02*
X120491855Y-76120451D01*
X120653690Y-76119947D01*
X120804734Y-76119147D01*
X120941867Y-76118083D01*
X121061971Y-76116788D01*
X121161926Y-76115292D01*
X121238614Y-76113628D01*
X121288916Y-76111830D01*
X121307043Y-76110469D01*
X121363516Y-76095999D01*
X121427634Y-76069973D01*
X121463470Y-76050938D01*
X121546603Y-75985326D01*
X121604319Y-75906914D01*
X121637857Y-75820152D01*
X121648453Y-75729491D01*
X121637345Y-75639384D01*
X121605771Y-75554280D01*
X121554968Y-75478631D01*
X121486174Y-75416889D01*
X121400625Y-75373505D01*
X121299560Y-75352930D01*
X121269125Y-75351862D01*
X121164524Y-75363385D01*
X121076343Y-75399920D01*
X120998171Y-75464414D01*
X120979692Y-75484958D01*
X120939017Y-75540691D01*
X120911740Y-75600705D01*
X120895722Y-75672750D01*
X120888824Y-75764577D01*
X120888125Y-75816874D01*
X120888125Y-75961875D01*
X120057913Y-75961875D01*
X120067308Y-75743594D01*
X120077769Y-75595320D01*
X120096650Y-75469090D01*
X120126153Y-75355814D01*
X120168482Y-75246402D01*
X120207041Y-75167017D01*
X120308779Y-75004631D01*
X120432713Y-74863651D01*
X120576278Y-74745607D01*
X120736912Y-74652029D01*
X120912051Y-74584448D01*
X121099133Y-74544393D01*
X121269125Y-74533125D01*
X121440697Y-74542969D01*
X121598159Y-74574294D01*
X121752993Y-74629789D01*
X121824750Y-74663305D01*
X121941138Y-74733882D01*
X122057912Y-74827481D01*
X122167327Y-74936433D01*
X122261637Y-75053068D01*
X122329965Y-75163574D01*
X122396188Y-75319643D01*
X122442246Y-75488174D01*
X122466591Y-75660251D01*
X122467676Y-75826955D01*
X122458886Y-75906313D01*
X122413689Y-76096734D01*
X122340534Y-76274042D01*
X122241369Y-76435781D01*
X122118147Y-76579493D01*
X121972816Y-76702723D01*
X121807327Y-76803012D01*
X121713452Y-76845484D01*
X121671511Y-76861956D01*
X121631416Y-76876147D01*
X121590531Y-76888228D01*
X121546221Y-76898367D01*
X121495849Y-76906734D01*
X121436780Y-76913498D01*
X121366377Y-76918830D01*
X121282006Y-76922897D01*
X121181030Y-76925870D01*
X121060814Y-76927918D01*
X120918721Y-76929210D01*
X120752116Y-76929916D01*
X120558363Y-76930205D01*
X120394603Y-76930250D01*
X119411750Y-76930250D01*
X119411750Y-76120625D01*
X120322346Y-76120625D01*
G36*
X120052993Y-68215846D02*
X120073568Y-68084539D01*
X120111243Y-67956494D01*
X120168788Y-67819808D01*
X120176919Y-67802759D01*
X120214711Y-67727329D01*
X120249057Y-67668106D01*
X120286631Y-67615872D01*
X120334107Y-67561408D01*
X120398159Y-67495496D01*
X120402512Y-67491138D01*
X120469369Y-67425923D01*
X120524244Y-67377670D01*
X120576356Y-67339705D01*
X120634923Y-67305354D01*
X120709163Y-67267944D01*
X120714133Y-67265545D01*
X120852601Y-67205504D01*
X120981041Y-67165653D01*
X121111354Y-67143227D01*
X121255441Y-67135455D01*
X121273688Y-67135375D01*
X121468735Y-67150513D01*
X121654854Y-67194800D01*
X121829317Y-67266553D01*
X121989400Y-67364085D01*
X122132373Y-67485711D01*
X122255511Y-67629747D01*
X122356086Y-67794506D01*
X122363183Y-67808751D01*
X122396098Y-67881001D01*
X122426507Y-67956552D01*
X122448792Y-68021257D01*
X122451961Y-68032313D01*
X122468643Y-68117374D01*
X122479729Y-68222687D01*
X122484959Y-68337566D01*
X122484071Y-68451322D01*
X122476804Y-68553270D01*
X122466286Y-68618859D01*
X122409070Y-68805660D01*
X122325821Y-68976871D01*
X122219090Y-69130555D01*
X122091429Y-69264775D01*
X121945389Y-69377596D01*
X121783520Y-69467081D01*
X121608375Y-69531293D01*
X121422504Y-69568296D01*
X121261627Y-69574811D01*
X121261627Y-68765972D01*
X121358828Y-68754719D01*
X121451463Y-68719540D01*
X121535150Y-68660966D01*
X121605502Y-68579529D01*
X121658137Y-68475760D01*
X121659958Y-68470744D01*
X121678412Y-68393565D01*
X121676326Y-68314592D01*
X121658518Y-68237601D01*
X121614195Y-68140080D01*
X121547538Y-68059634D01*
X121463844Y-67998802D01*
X121368413Y-67960125D01*
X121266543Y-67946142D01*
X121163533Y-67959393D01*
X121114132Y-67976648D01*
X121019383Y-68032824D01*
X120944830Y-68108209D01*
X120892231Y-68197642D01*
X120863348Y-68295960D01*
X120859938Y-68398002D01*
X120883764Y-68498607D01*
X120914875Y-68561086D01*
X120986486Y-68650855D01*
X121071072Y-68714571D01*
X121164247Y-68752766D01*
X121261627Y-68765972D01*
X121261627Y-69574811D01*
X121228458Y-69576155D01*
X121206352Y-69575136D01*
X121071856Y-69563229D01*
X120955776Y-69541603D01*
X120845458Y-69507077D01*
X120728248Y-69456469D01*
X120721437Y-69453198D01*
X120557265Y-69356902D01*
X120412678Y-69237230D01*
X120289490Y-69097119D01*
X120189520Y-68939507D01*
X120114583Y-68767331D01*
X120066497Y-68583527D01*
X120047078Y-68391034D01*
X120046750Y-68362314D01*
X120052993Y-68215846D01*
X120052993Y-68215846D01*
G37*
X120052993Y-68215846D02*
X120073568Y-68084539D01*
X120111243Y-67956494D01*
X120168788Y-67819808D01*
X120176919Y-67802759D01*
X120214711Y-67727329D01*
X120249057Y-67668106D01*
X120286631Y-67615872D01*
X120334107Y-67561408D01*
X120398159Y-67495496D01*
X120402512Y-67491138D01*
X120469369Y-67425923D01*
X120524244Y-67377670D01*
X120576356Y-67339705D01*
X120634923Y-67305354D01*
X120709163Y-67267944D01*
X120714133Y-67265545D01*
X120852601Y-67205504D01*
X120981041Y-67165653D01*
X121111354Y-67143227D01*
X121255441Y-67135455D01*
X121273688Y-67135375D01*
X121468735Y-67150513D01*
X121654854Y-67194800D01*
X121829317Y-67266553D01*
X121989400Y-67364085D01*
X122132373Y-67485711D01*
X122255511Y-67629747D01*
X122356086Y-67794506D01*
X122363183Y-67808751D01*
X122396098Y-67881001D01*
X122426507Y-67956552D01*
X122448792Y-68021257D01*
X122451961Y-68032313D01*
X122468643Y-68117374D01*
X122479729Y-68222687D01*
X122484959Y-68337566D01*
X122484071Y-68451322D01*
X122476804Y-68553270D01*
X122466286Y-68618859D01*
X122409070Y-68805660D01*
X122325821Y-68976871D01*
X122219090Y-69130555D01*
X122091429Y-69264775D01*
X121945389Y-69377596D01*
X121783520Y-69467081D01*
X121608375Y-69531293D01*
X121422504Y-69568296D01*
X121261627Y-69574811D01*
X121261627Y-68765972D01*
X121358828Y-68754719D01*
X121451463Y-68719540D01*
X121535150Y-68660966D01*
X121605502Y-68579529D01*
X121658137Y-68475760D01*
X121659958Y-68470744D01*
X121678412Y-68393565D01*
X121676326Y-68314592D01*
X121658518Y-68237601D01*
X121614195Y-68140080D01*
X121547538Y-68059634D01*
X121463844Y-67998802D01*
X121368413Y-67960125D01*
X121266543Y-67946142D01*
X121163533Y-67959393D01*
X121114132Y-67976648D01*
X121019383Y-68032824D01*
X120944830Y-68108209D01*
X120892231Y-68197642D01*
X120863348Y-68295960D01*
X120859938Y-68398002D01*
X120883764Y-68498607D01*
X120914875Y-68561086D01*
X120986486Y-68650855D01*
X121071072Y-68714571D01*
X121164247Y-68752766D01*
X121261627Y-68765972D01*
X121261627Y-69574811D01*
X121228458Y-69576155D01*
X121206352Y-69575136D01*
X121071856Y-69563229D01*
X120955776Y-69541603D01*
X120845458Y-69507077D01*
X120728248Y-69456469D01*
X120721437Y-69453198D01*
X120557265Y-69356902D01*
X120412678Y-69237230D01*
X120289490Y-69097119D01*
X120189520Y-68939507D01*
X120114583Y-68767331D01*
X120066497Y-68583527D01*
X120047078Y-68391034D01*
X120046750Y-68362314D01*
X120052993Y-68215846D01*
D13*
X115792857Y-95416666D02*
X116269047Y-95416666D01*
X115697619Y-95702380D02*
X116030952Y-94702380D01*
X116364285Y-95702380D01*
X116697619Y-95702380D02*
X116697619Y-95035714D01*
X116697619Y-95226190D02*
X116745238Y-95130952D01*
X116792857Y-95083333D01*
X116888095Y-95035714D01*
X116983333Y-95035714D01*
X117745238Y-95702380D02*
X117745238Y-94702380D01*
X117745238Y-95654761D02*
X117650000Y-95702380D01*
X117459523Y-95702380D01*
X117364285Y-95654761D01*
X117316666Y-95607142D01*
X117269047Y-95511904D01*
X117269047Y-95226190D01*
X117316666Y-95130952D01*
X117364285Y-95083333D01*
X117459523Y-95035714D01*
X117650000Y-95035714D01*
X117745238Y-95083333D01*
X118650000Y-95035714D02*
X118650000Y-95702380D01*
X118221428Y-95035714D02*
X118221428Y-95559523D01*
X118269047Y-95654761D01*
X118364285Y-95702380D01*
X118507142Y-95702380D01*
X118602380Y-95654761D01*
X118650000Y-95607142D01*
X119126190Y-95702380D02*
X119126190Y-95035714D01*
X119126190Y-94702380D02*
X119078571Y-94750000D01*
X119126190Y-94797619D01*
X119173809Y-94750000D01*
X119126190Y-94702380D01*
X119126190Y-94797619D01*
X119602380Y-95035714D02*
X119602380Y-95702380D01*
X119602380Y-95130952D02*
X119650000Y-95083333D01*
X119745238Y-95035714D01*
X119888095Y-95035714D01*
X119983333Y-95083333D01*
X120030952Y-95178571D01*
X120030952Y-95702380D01*
X120650000Y-95702380D02*
X120554761Y-95654761D01*
X120507142Y-95607142D01*
X120459523Y-95511904D01*
X120459523Y-95226190D01*
X120507142Y-95130952D01*
X120554761Y-95083333D01*
X120650000Y-95035714D01*
X120792857Y-95035714D01*
X120888095Y-95083333D01*
X120935714Y-95130952D01*
X120983333Y-95226190D01*
X120983333Y-95511904D01*
X120935714Y-95607142D01*
X120888095Y-95654761D01*
X120792857Y-95702380D01*
X120650000Y-95702380D01*
X121173809Y-95797619D02*
X121935714Y-95797619D01*
X122173809Y-95702380D02*
X122173809Y-94702380D01*
X122745238Y-95702380D01*
X122745238Y-94702380D01*
X123650000Y-95702380D02*
X123650000Y-95178571D01*
X123602380Y-95083333D01*
X123507142Y-95035714D01*
X123316666Y-95035714D01*
X123221428Y-95083333D01*
X123650000Y-95654761D02*
X123554761Y-95702380D01*
X123316666Y-95702380D01*
X123221428Y-95654761D01*
X123173809Y-95559523D01*
X123173809Y-95464285D01*
X123221428Y-95369047D01*
X123316666Y-95321428D01*
X123554761Y-95321428D01*
X123650000Y-95273809D01*
X124126190Y-95035714D02*
X124126190Y-95702380D01*
X124126190Y-95130952D02*
X124173809Y-95083333D01*
X124269047Y-95035714D01*
X124411904Y-95035714D01*
X124507142Y-95083333D01*
X124554761Y-95178571D01*
X124554761Y-95702380D01*
X125173809Y-95702380D02*
X125078571Y-95654761D01*
X125030952Y-95607142D01*
X124983333Y-95511904D01*
X124983333Y-95226190D01*
X125030952Y-95130952D01*
X125078571Y-95083333D01*
X125173809Y-95035714D01*
X125316666Y-95035714D01*
X125411904Y-95083333D01*
X125459523Y-95130952D01*
X125507142Y-95226190D01*
X125507142Y-95511904D01*
X125459523Y-95607142D01*
X125411904Y-95654761D01*
X125316666Y-95702380D01*
X125173809Y-95702380D01*
X101806666Y-68984761D02*
X101949523Y-69032380D01*
X102187619Y-69032380D01*
X102282857Y-68984761D01*
X102330476Y-68937142D01*
X102378095Y-68841904D01*
X102378095Y-68746666D01*
X102330476Y-68651428D01*
X102282857Y-68603809D01*
X102187619Y-68556190D01*
X101997142Y-68508571D01*
X101901904Y-68460952D01*
X101854285Y-68413333D01*
X101806666Y-68318095D01*
X101806666Y-68222857D01*
X101854285Y-68127619D01*
X101901904Y-68080000D01*
X101997142Y-68032380D01*
X102235238Y-68032380D01*
X102378095Y-68080000D01*
X103187619Y-68984761D02*
X103092380Y-69032380D01*
X102901904Y-69032380D01*
X102806666Y-68984761D01*
X102759047Y-68889523D01*
X102759047Y-68508571D01*
X102806666Y-68413333D01*
X102901904Y-68365714D01*
X103092380Y-68365714D01*
X103187619Y-68413333D01*
X103235238Y-68508571D01*
X103235238Y-68603809D01*
X102759047Y-68699047D01*
X103663809Y-69032380D02*
X103663809Y-68365714D01*
X103663809Y-68556190D02*
X103711428Y-68460952D01*
X103759047Y-68413333D01*
X103854285Y-68365714D01*
X103949523Y-68365714D01*
X104187619Y-68365714D02*
X104425714Y-69032380D01*
X104663809Y-68365714D01*
X105187619Y-69032380D02*
X105092380Y-68984761D01*
X105044761Y-68937142D01*
X104997142Y-68841904D01*
X104997142Y-68556190D01*
X105044761Y-68460952D01*
X105092380Y-68413333D01*
X105187619Y-68365714D01*
X105330476Y-68365714D01*
X105425714Y-68413333D01*
X105473333Y-68460952D01*
X105520952Y-68556190D01*
X105520952Y-68841904D01*
X105473333Y-68937142D01*
X105425714Y-68984761D01*
X105330476Y-69032380D01*
X105187619Y-69032380D01*
X105901904Y-68127619D02*
X105949523Y-68080000D01*
X106044761Y-68032380D01*
X106282857Y-68032380D01*
X106378095Y-68080000D01*
X106425714Y-68127619D01*
X106473333Y-68222857D01*
X106473333Y-68318095D01*
X106425714Y-68460952D01*
X105854285Y-69032380D01*
X106473333Y-69032380D01*
X101806666Y-74064761D02*
X101949523Y-74112380D01*
X102187619Y-74112380D01*
X102282857Y-74064761D01*
X102330476Y-74017142D01*
X102378095Y-73921904D01*
X102378095Y-73826666D01*
X102330476Y-73731428D01*
X102282857Y-73683809D01*
X102187619Y-73636190D01*
X101997142Y-73588571D01*
X101901904Y-73540952D01*
X101854285Y-73493333D01*
X101806666Y-73398095D01*
X101806666Y-73302857D01*
X101854285Y-73207619D01*
X101901904Y-73160000D01*
X101997142Y-73112380D01*
X102235238Y-73112380D01*
X102378095Y-73160000D01*
X103187619Y-74064761D02*
X103092380Y-74112380D01*
X102901904Y-74112380D01*
X102806666Y-74064761D01*
X102759047Y-73969523D01*
X102759047Y-73588571D01*
X102806666Y-73493333D01*
X102901904Y-73445714D01*
X103092380Y-73445714D01*
X103187619Y-73493333D01*
X103235238Y-73588571D01*
X103235238Y-73683809D01*
X102759047Y-73779047D01*
X103663809Y-74112380D02*
X103663809Y-73445714D01*
X103663809Y-73636190D02*
X103711428Y-73540952D01*
X103759047Y-73493333D01*
X103854285Y-73445714D01*
X103949523Y-73445714D01*
X104187619Y-73445714D02*
X104425714Y-74112380D01*
X104663809Y-73445714D01*
X105187619Y-74112380D02*
X105092380Y-74064761D01*
X105044761Y-74017142D01*
X104997142Y-73921904D01*
X104997142Y-73636190D01*
X105044761Y-73540952D01*
X105092380Y-73493333D01*
X105187619Y-73445714D01*
X105330476Y-73445714D01*
X105425714Y-73493333D01*
X105473333Y-73540952D01*
X105520952Y-73636190D01*
X105520952Y-73921904D01*
X105473333Y-74017142D01*
X105425714Y-74064761D01*
X105330476Y-74112380D01*
X105187619Y-74112380D01*
X106473333Y-74112380D02*
X105901904Y-74112380D01*
X106187619Y-74112380D02*
X106187619Y-73112380D01*
X106092380Y-73255238D01*
X105997142Y-73350476D01*
X105901904Y-73398095D01*
X142795714Y-53506666D02*
X143271904Y-53506666D01*
X142700476Y-53792380D02*
X143033809Y-52792380D01*
X143367142Y-53792380D01*
X144176666Y-52792380D02*
X143700476Y-52792380D01*
X143652857Y-53268571D01*
X143700476Y-53220952D01*
X143795714Y-53173333D01*
X144033809Y-53173333D01*
X144129047Y-53220952D01*
X144176666Y-53268571D01*
X144224285Y-53363809D01*
X144224285Y-53601904D01*
X144176666Y-53697142D01*
X144129047Y-53744761D01*
X144033809Y-53792380D01*
X143795714Y-53792380D01*
X143700476Y-53744761D01*
X143652857Y-53697142D01*
X142795714Y-61126666D02*
X143271904Y-61126666D01*
X142700476Y-61412380D02*
X143033809Y-60412380D01*
X143367142Y-61412380D01*
X144129047Y-60745714D02*
X144129047Y-61412380D01*
X143890952Y-60364761D02*
X143652857Y-61079047D01*
X144271904Y-61079047D01*
X142795714Y-68746666D02*
X143271904Y-68746666D01*
X142700476Y-69032380D02*
X143033809Y-68032380D01*
X143367142Y-69032380D01*
X143605238Y-68032380D02*
X144224285Y-68032380D01*
X143890952Y-68413333D01*
X144033809Y-68413333D01*
X144129047Y-68460952D01*
X144176666Y-68508571D01*
X144224285Y-68603809D01*
X144224285Y-68841904D01*
X144176666Y-68937142D01*
X144129047Y-68984761D01*
X144033809Y-69032380D01*
X143748095Y-69032380D01*
X143652857Y-68984761D01*
X143605238Y-68937142D01*
X142795714Y-76366666D02*
X143271904Y-76366666D01*
X142700476Y-76652380D02*
X143033809Y-75652380D01*
X143367142Y-76652380D01*
X143652857Y-75747619D02*
X143700476Y-75700000D01*
X143795714Y-75652380D01*
X144033809Y-75652380D01*
X144129047Y-75700000D01*
X144176666Y-75747619D01*
X144224285Y-75842857D01*
X144224285Y-75938095D01*
X144176666Y-76080952D01*
X143605238Y-76652380D01*
X144224285Y-76652380D01*
X142795714Y-83986666D02*
X143271904Y-83986666D01*
X142700476Y-84272380D02*
X143033809Y-83272380D01*
X143367142Y-84272380D01*
X144224285Y-84272380D02*
X143652857Y-84272380D01*
X143938571Y-84272380D02*
X143938571Y-83272380D01*
X143843333Y-83415238D01*
X143748095Y-83510476D01*
X143652857Y-83558095D01*
X142795714Y-91606666D02*
X143271904Y-91606666D01*
X142700476Y-91892380D02*
X143033809Y-90892380D01*
X143367142Y-91892380D01*
X143890952Y-90892380D02*
X143986190Y-90892380D01*
X144081428Y-90940000D01*
X144129047Y-90987619D01*
X144176666Y-91082857D01*
X144224285Y-91273333D01*
X144224285Y-91511428D01*
X144176666Y-91701904D01*
X144129047Y-91797142D01*
X144081428Y-91844761D01*
X143986190Y-91892380D01*
X143890952Y-91892380D01*
X143795714Y-91844761D01*
X143748095Y-91797142D01*
X143700476Y-91701904D01*
X143652857Y-91511428D01*
X143652857Y-91273333D01*
X143700476Y-91082857D01*
X143748095Y-90987619D01*
X143795714Y-90940000D01*
X143890952Y-90892380D01*
X98242380Y-64142857D02*
X98242380Y-64619047D01*
X97242380Y-64619047D01*
X97718571Y-63809523D02*
X97718571Y-63476190D01*
X98242380Y-63333333D02*
X98242380Y-63809523D01*
X97242380Y-63809523D01*
X97242380Y-63333333D01*
X98242380Y-62904761D02*
X97242380Y-62904761D01*
X97242380Y-62666666D01*
X97290000Y-62523809D01*
X97385238Y-62428571D01*
X97480476Y-62380952D01*
X97670952Y-62333333D01*
X97813809Y-62333333D01*
X98004285Y-62380952D01*
X98099523Y-62428571D01*
X98194761Y-62523809D01*
X98242380Y-62666666D01*
X98242380Y-62904761D01*
M02*
